{
	"meta": {
		"totalCountIsEstimate": true,
		"count": 0,
		"pageCount": 4,
		"totalCount": 339,
		"next": "/transactions?transform=true&page=2&limit=100",
		"previous": null,
		"self": "/transactions?transform=true&page=1&limit=100",
		"first": "/transactions?transform=true&page=1&limit=100",
		"last": "/transactions?transform=true&page=4&limit=100"
	},
	"data": [
		{
			"id": "df520b0a278314e998dc93be1e20c72b8313950c19da23967a9db60eb4e990da",
			"blockId": "3a6156804fd49caaec44d6cd1aa9b99b2c24204c14aa2ca966739a2063828f58",
			"version": 2,
			"type": 6,
			"typeGroup": 2,
			"amount": "0",
			"fee": "5000000000",
			"sender": "D5sRKWckH4rE1hQ9eeMeHAepgyC3cvJtwb",
			"senderPublicKey": "03af2feb4fc97301e16d6a877d5b135417e8f284d40fac0f84c09ca37f82886c51",
			"recipient": "D5sRKWckH4rE1hQ9eeMeHAepgyC3cvJtwb",
			"signature": "68e006bf3133bf582aa3ce9fa0722225940a5fa797fb59f02333e89c2c7909681ad988db5baebdb7152010db15713069dde0755a23bf8b797f626d09b0cb7ad4",
			"asset": {
				"type": 4,
				"subType": 0,
				"action": 0,
				"data": {
					"name": "delegatename",
					"ipfsData": "QmRwgWaaEyYgGqp55196TsFDQLW4NZkyTnPwiSVhJ7NPRV"
				}
			},
			"confirmations": 256842,
			"timestamp": {
				"epoch": 106691560,
				"unix": 1596792760,
				"human": "2020-08-07T09:32:40.000Z"
			},
			"nonce": "8"
		}
	]
}
