{
	"meta": {
		"totalCountIsEstimate": true,
		"count": 15,
		"pageCount": 7,
		"totalCount": 63,
		"next": "/wallets/D6Z26L69gdk9qYmTv5uzk3uGepigtHY4ax/transactions?transform=true&page=2&limit=15",
		"previous": null,
		"self": "/wallets/D6Z26L69gdk9qYmTv5uzk3uGepigtHY4ax/transactions?transform=true&page=1&limit=15",
		"first": "/wallets/D6Z26L69gdk9qYmTv5uzk3uGepigtHY4ax/transactions?transform=true&page=1&limit=15",
		"last": "/wallets/D6Z26L69gdk9qYmTv5uzk3uGepigtHY4ax/transactions?transform=true&page=7&limit=15"
	},
	"data": [
		{
			"id": "8f913b6b719e7767d49861c0aec79ced212767645cb793d75d2f1b89abb49877",
			"blockId": "2a690f25cb1603275936665162e26415cad14199dda141d33666597c8bca8c5c",
			"version": 2,
			"type": 0,
			"typeGroup": 1,
			"amount": "40000000000000",
			"fee": "10000000",
			"sender": "D6Z26L69gdk9qYmTv5uzk3uGepigtHY4ax",
			"senderPublicKey": "03d3fdad9c5b25bf8880e6b519eb3611a5c0b31adebc8455f0e096175b28321aff",
			"recipient": "D5pVkhZbSb4UNXvfmF6j7zdau8yGxfKwSv",
			"signature": "a6244e06e0f0d446326de249a56a26c432e4af18f3f6374dcea599a691877441dcaff88c0c8cfb73ecc5e923ee93996e6157382bc906f2ab588695354e40a92d",
			"signSignature": "e09755da1246e3c27786f4048ef9b633784d05bfa3071dffc0a50a996660830db2befc057a34b30faded87b1c0f59e19ee54fb330764c8f45588711d70aa6aa8",
			"confirmations": 154178,
			"timestamp": {
				"epoch": 105390200,
				"unix": 1595491400,
				"human": "2020-07-23T08:03:20.000Z"
			},
			"nonce": "276"
		},
		{
			"id": "0d8d12d7980bf0183ef015e5938e56c44c3db4d3695cefd16ccec4a7bfd8a2cf",
			"blockId": "3a9cb9247dddd209c6db30d498cbb86af0ae6186a913706f0e351f6ec9677b3b",
			"version": 2,
			"type": 0,
			"typeGroup": 1,
			"amount": "5000000000000",
			"fee": "10000000",
			"sender": "D6Z26L69gdk9qYmTv5uzk3uGepigtHY4ax",
			"senderPublicKey": "03d3fdad9c5b25bf8880e6b519eb3611a5c0b31adebc8455f0e096175b28321aff",
			"recipient": "DKY5eyQUKKYyaCfPp6MUv3Y4FW6EbNF53A",
			"signature": "6db4206678a9dce40a5574dccfa84cb2b5d052bb4e0c1e8713affa2dae5d954856258864fbfea842c76b1d1de78f223370a231baaaee07fae4accb2a10a2d747",
			"signSignature": "6ea7306c58546b993804e9acbe04313f462e166dcad5baf1352bb2c880749e1a722a7ea606eb85ec7b33ad84a553e14c1c9eba6eb42a16ccf5faf57e63352cbd",
			"confirmations": 154188,
			"timestamp": {
				"epoch": 105390112,
				"unix": 1595491312,
				"human": "2020-07-23T08:01:52.000Z"
			},
			"nonce": "275"
		},
		{
			"id": "73b0aec130840a50adf747a8dd18faf1109c47ac8faef6579d59a9737f3cb33e",
			"blockId": "6c2bc1423db215515168b22f3f8b02f8157bf3fafedb2686159753d90438c4d8",
			"version": 2,
			"type": 0,
			"typeGroup": 1,
			"amount": "10000000000000",
			"fee": "10000000",
			"sender": "D6Z26L69gdk9qYmTv5uzk3uGepigtHY4ax",
			"senderPublicKey": "03d3fdad9c5b25bf8880e6b519eb3611a5c0b31adebc8455f0e096175b28321aff",
			"recipient": "DKY5eyQUKKYyaCfPp6MUv3Y4FW6EbNF53A",
			"signature": "db196ef40ac2365d977946a33510463c82aac22b4b549253ce99fec710b411838de9834c41e84be2357a0ff62ac8050659524105dee5c30803e249e2c9e98978",
			"signSignature": "d3cf1fbcf56a1137035cdee83ef5db9bec0dd5906e5b5888491c615f28ee041d2de6213c419417d49c42bb5260bfc442e853a1aab13245c6bbe04d19c77f3e66",
			"confirmations": 154205,
			"timestamp": {
				"epoch": 105389944,
				"unix": 1595491144,
				"human": "2020-07-23T07:59:04.000Z"
			},
			"nonce": "274"
		},
		{
			"id": "b32ea92c3142b1ee21a1a287524bd97d16f4f84097be085e6b89f23d07170a37",
			"blockId": "b0543ab40f7ef2492dbdaa4f4b0b60b3960497847b6531e92a974a104c9c9317",
			"version": 2,
			"type": 0,
			"typeGroup": 1,
			"amount": "10000000000000",
			"fee": "10000000",
			"sender": "D6Z26L69gdk9qYmTv5uzk3uGepigtHY4ax",
			"senderPublicKey": "03d3fdad9c5b25bf8880e6b519eb3611a5c0b31adebc8455f0e096175b28321aff",
			"recipient": "DHg1jYVS23D6GP7RuhckuJsYAr6crH6c3Z",
			"signature": "24323152b0a2d29fa897160d48b84d2051255f0296f39461fdd7d117d2930f707e00ed9b6a253d0dcb2bf7639dcdf6f768296bcc58f8660c2747d7fd4680fb89",
			"signSignature": "80a36d4b04d5cc508eb1210dbc2c5c4cd4fd357ed9065e57efcf872eebee9800213468944693760cec9bc63d76a843e8a9be64bcbcf0ed2aa1e172382d5c5990",
			"confirmations": 154210,
			"timestamp": {
				"epoch": 105389904,
				"unix": 1595491104,
				"human": "2020-07-23T07:58:24.000Z"
			},
			"nonce": "273"
		},
		{
			"id": "35c3e88e868daf1423fd1d9421bc911fbb4331954fd07aacc57cd20644f53f9e",
			"blockId": "78243ec33fbfb86973b858285e1ef3cac29aed245fd892932906f4416a29a8f1",
			"version": 2,
			"type": 0,
			"typeGroup": 1,
			"amount": "1000000000000",
			"fee": "7122248",
			"sender": "D6Z26L69gdk9qYmTv5uzk3uGepigtHY4ax",
			"senderPublicKey": "03d3fdad9c5b25bf8880e6b519eb3611a5c0b31adebc8455f0e096175b28321aff",
			"recipient": "DM7UiH4b2rW2Nv11Wu6ToiZi8MJhGCEWhP",
			"signature": "d7b987e796c2ae81ab68f7909aabc4ffcbf6f4b599e74aaed09752a1e0c16c8259cd0b2ce1a6fd986e7ff789355e9483ea46387ac3d24d160e03cb233f329beb",
			"signSignature": "0499cd8a4a3bbf001ced419e739c91607d4be85c068435a77d230508f4a6d6156f4547a7cb4afc263eb1b393919536187ac2a735594524f40ac47136526fea6f",
			"confirmations": 299181,
			"timestamp": {
				"epoch": 104106912,
				"unix": 1594208112,
				"human": "2020-07-08T11:35:12.000Z"
			},
			"nonce": "272"
		},
		{
			"id": "83f09fca14b9924d07ff50cdabf6ee9be35b12663b1222fee2dde4fdbb64d3c5",
			"blockId": "732e953f0fe8c34cffdb6523587da5eecfe3635e41470fd4e0daebea8d13e056",
			"version": 2,
			"type": 0,
			"typeGroup": 1,
			"amount": "27000000000000",
			"fee": "10000000",
			"sender": "D6Z26L69gdk9qYmTv5uzk3uGepigtHY4ax",
			"senderPublicKey": "03d3fdad9c5b25bf8880e6b519eb3611a5c0b31adebc8455f0e096175b28321aff",
			"recipient": "DRgF3PvzeGWndQjET7dZsSmnrc6uAy23ES",
			"signature": "a1f579f7f3ebab323c5874a9deaca3c46b7415c47758a87f257d1f16634b83f3ac103daab8eaea5912691bd30e44de1f2ac5631aa7e3d6179a2338bdc66d2beb",
			"signSignature": "845c6aaba59fb0fc2ea1aa2ccc27589f656317347f05b54acc556a8e207b3cefeaaa987d287a6be8ed12292c2be755c928c6d607a6015aefc7c39f7a731a8fe6",
			"confirmations": 988862,
			"timestamp": {
				"epoch": 97964584,
				"unix": 1588065784,
				"human": "2020-04-28T09:23:04.000Z"
			},
			"nonce": "271"
		},
		{
			"id": "2347cc788408d805546b9afdcf50814e1bfaae601d3e180c81bc5101fe8b212c",
			"blockId": "94a906ebb43a08da329477826ee5367c8d76b973f9d611500f40439d2c69e09f",
			"version": 2,
			"type": 0,
			"typeGroup": 1,
			"amount": "100000000",
			"fee": "3371308",
			"sender": "D6Z26L69gdk9qYmTv5uzk3uGepigtHY4ax",
			"senderPublicKey": "03d3fdad9c5b25bf8880e6b519eb3611a5c0b31adebc8455f0e096175b28321aff",
			"recipient": "D6Z26L69gdk9qYmTv5uzk3uGepigtHY4ax",
			"signature": "99ba305c42703a79fa93b7fbaf3c70482a0a11d2ceaddf5b8fb52139b10b569f919945ef4592550e70777b67279d5a022ca316a576af4f9c578b52d5a3b860b5",
			"signSignature": "e5ce107a50d98b01db895196cb5ccd1eb77eddf43defeebec5fa1c430fac73747b2a06058244c74a2b6dc49a483baa4353ff0af59eba5ed3fc5e17ee00cf3728",
			"confirmations": 998160,
			"timestamp": {
				"epoch": 97885888,
				"unix": 1587987088,
				"human": "2020-04-27T11:31:28.000Z"
			},
			"nonce": "270"
		},
		{
			"id": "56e855785642d94b5d47ed53ad6c10ec8fbdff4036ba8c301621fd9381d16867",
			"blockId": "cc9c885f4be3748945415e9680ad787f8d43d65c27fc75951594f8b2376c6366",
			"version": 2,
			"type": 0,
			"typeGroup": 1,
			"amount": "1000000000000",
			"fee": "10000000",
			"sender": "D6Z26L69gdk9qYmTv5uzk3uGepigtHY4ax",
			"senderPublicKey": "03d3fdad9c5b25bf8880e6b519eb3611a5c0b31adebc8455f0e096175b28321aff",
			"recipient": "DPv1wzB2xJtJQH5PaCMnw1V9mUBugzP8yQ",
			"signature": "6ebc6ff12831c63a59894fd8500d825355a6fa0974d655a41c58f8557190f0678a260383649b3f6228941a9c7eb0fa19a362fa523f6d058cb2823bada6413d2d",
			"signSignature": "29c967a8a753b71777244c2d2f1517d7296ed15e67771477e7f558aaa487f78c69af72c10868492d90eebfb4661c1d337f2f294a2629f68eda42dcd2f286c99d",
			"confirmations": 998163,
			"timestamp": {
				"epoch": 97885864,
				"unix": 1587987064,
				"human": "2020-04-27T11:31:04.000Z"
			},
			"nonce": "269"
		},
		{
			"id": "9295a735c9a12b5b0c9ba70c21c82ca8307f9bc666102e95982924186fee2ef3",
			"blockId": "7da73a4f2937ab655bd5c30295bc6b3f6354576fc702465e8dd223bb1c8bac94",
			"version": 2,
			"type": 1,
			"typeGroup": 1,
			"amount": "0",
			"fee": "500000000",
			"sender": "D6Z26L69gdk9qYmTv5uzk3uGepigtHY4ax",
			"senderPublicKey": "03d3fdad9c5b25bf8880e6b519eb3611a5c0b31adebc8455f0e096175b28321aff",
			"recipient": "D6Z26L69gdk9qYmTv5uzk3uGepigtHY4ax",
			"signature": "3b9896f155b3103f28376f2c35d58821dc733c2df73d5b44e2c0361ca528a6256ad65186d358d7ed544491a41f143116b7f46c72f786d62ae6fcba1a21c868d0",
			"asset": {
				"signature": {
					"publicKey": "02877e4f35c76abaeb152b128670db0a7ae10b3999afcd28a42938b653fbf87ae9"
				}
			},
			"confirmations": 998185,
			"timestamp": {
				"epoch": 97885680,
				"unix": 1587986880,
				"human": "2020-04-27T11:28:00.000Z"
			},
			"nonce": "268"
		},
		{
			"id": "939e33e863a179e7169b378c88f1aabbf941828efc1c1b34be07ae6c1905b083",
			"blockId": "61dba5a6d62cd4666d07c938048163f88ee7df4ee504b9500c218809671296c7",
			"version": 2,
			"type": 0,
			"typeGroup": 1,
			"amount": "10000000000000",
			"fee": "3499657",
			"sender": "D6Z26L69gdk9qYmTv5uzk3uGepigtHY4ax",
			"senderPublicKey": "03d3fdad9c5b25bf8880e6b519eb3611a5c0b31adebc8455f0e096175b28321aff",
			"recipient": "D8c6zgQ2CYWvbCzqZbhWCKXDFHyje9tUMR",
			"signature": "531f38d5ecd4a271ee245857b2ef0d05fd5a1bfeeca682ae1dfc802427a9138e55d42cc76d292ef05541caaafc0f0933531eb385f2b9d3562470cb4ef88de572",
			"confirmations": 1009518,
			"timestamp": {
				"epoch": 97790840,
				"unix": 1587892040,
				"human": "2020-04-26T09:07:20.000Z"
			},
			"nonce": "267"
		},
		{
			"id": "34b557950ed485985aad81ccefaa374b7c81150c52f8ef4621cbbb907b2c829c",
			"blockId": "65e1f34a8e0edba9c04eec5d35b140245b4d14e063446a65477b28fc719faab5",
			"version": 2,
			"type": 6,
			"typeGroup": 1,
			"amount": "0",
			"fee": "10000000",
			"sender": "D6Z26L69gdk9qYmTv5uzk3uGepigtHY4ax",
			"senderPublicKey": "03d3fdad9c5b25bf8880e6b519eb3611a5c0b31adebc8455f0e096175b28321aff",
			"recipient": "D6Z26L69gdk9qYmTv5uzk3uGepigtHY4ax",
			"signature": "bf517b27ec1b74bcf63af7abea93ec1947f810e7c42f2737133e8cae1ab8517f3d9a59ffcfd31525c3b0b46de144b49070584d83c92c9f7de6cf3ae9d0fc273e",
			"asset": {
				"payments": [
					{
						"amount": "1000000000000",
						"recipientId": "DReUcXWdCz2QLKzHM9NdZQE7fAwAyPwAmd"
					},
					{
						"amount": "1000000000000",
						"recipientId": "D7JJ4ZfkJDwDCwuwzhtbCFapBUCWU3HHGP"
					},
					{
						"amount": "1000000000000",
						"recipientId": "DA4RAKRngGDfgEA7L6nQjYVEKcZPgi8EdP"
					},
					{
						"amount": "1000000000000",
						"recipientId": "DK52aX793nEMRpDvRVB2euBgGXiCpRfmwQ"
					}
				]
			},
			"confirmations": 1325777,
			"timestamp": {
				"epoch": 96231320,
				"unix": 1586332520,
				"human": "2020-04-08T07:55:20.000Z"
			},
			"nonce": "266"
		},
		{
			"id": "1e9b975eff66a731095876c3b6cbff14fd4dec3bb37a4127c46db3d69131067e",
			"blockId": "f5c458844691ec85bc394b447c86583df52e74cd76f9773cb44457bff2492365",
			"version": 2,
			"type": 5,
			"typeGroup": 1,
			"amount": "0",
			"fee": "500000000",
			"sender": "D5sRKWckH4rE1hQ9eeMeHAepgyC3cvJtwb",
			"senderPublicKey": "03af2feb4fc97301e16d6a877d5b135417e8f284d40fac0f84c09ca37f82886c51",
			"recipient": "D5sRKWckH4rE1hQ9eeMeHAepgyC3cvJtwb",
			"signature": "be2a4ba67c381a48d064f763d11f66e69342c4a3dd381115120c1896f878a02ad362c5ff339db31f9bdbfc6fa90c66754396b37a3a183e629c75e0f58885f255",
			"asset": {
				"ipfs": "QmPRqPTEEwx95WNcSsk6YQk7aGW9hoZbTF9zE92dBj9H68"
			},
			"confirmations": 108148,
			"timestamp": {
				"epoch": 106691432,
				"unix": 1596792632,
				"human": "2020-08-07T09:30:32.000Z"
			},
			"nonce": "6"
		},
		{
			"id": "d819c5199e323a62a4349948ff075edde91e509028329f66ec76b8518ad1e493",
			"blockId": "61d188ac6e127c7a9fd2f71be6cc96d839b1b3a36ac50ede7ccced92fa6588aa",
			"version": 2,
			"type": 3,
			"typeGroup": 1,
			"amount": "0",
			"fee": "20716584",
			"sender": "D8rr7B1d6TL6pf14LgMz4sKp1VBMs6YUYD",
			"senderPublicKey": "0335a27397927bfa1704116814474d39c2b933aabb990e7226389f022886e48deb",
			"recipient": "D8rr7B1d6TL6pf14LgMz4sKp1VBMs6YUYD",
			"signature": "81a67df443a8903afb1a703befd7a0bdc4e85290d2cbbeeb5b999869f1d8b4e7fa66391abaf1c23088dde5e5b4da121afd2dd964c09e5d9dbf7a53fd7a6330b4",
			"asset": {
				"votes": ["+034151a3ec46b5670a682b0a63394f863587d1bc97483b1b6c70eb58e7f0aed192"]
			},
			"confirmations": 1,
			"timestamp": {
				"epoch": 109814312,
				"unix": 1599915512,
				"human": "2020-09-12T12:58:32.000Z"
			},
			"nonce": "158"
		},
		{
			"id": "32e5278cb72f24f2c04c4797dbfbffa7072f6a30e016093fdd3f7660a2ee2faf",
			"blockId": "0dde450810cac0770ea12203ef106a5bc12272638a3b37615f14e28bdf5704cb",
			"version": 2,
			"type": 3,
			"typeGroup": 1,
			"amount": "0",
			"fee": "20716584",
			"sender": "D8rr7B1d6TL6pf14LgMz4sKp1VBMs6YUYD",
			"senderPublicKey": "0335a27397927bfa1704116814474d39c2b933aabb990e7226389f022886e48deb",
			"recipient": "D8rr7B1d6TL6pf14LgMz4sKp1VBMs6YUYD",
			"signature": "5709aee3a949a6f598d0dd3b95e02a30266fd27f89c30cc92a326b2c6eb008bb888eb8ebb16e27b83b4a9cbf38310a02bfc496cf2eb8d57983e8f1133db00875",
			"asset": {
				"votes": ["-034151a3ec46b5670a682b0a63394f863587d1bc97483b1b6c70eb58e7f0aed192"]
			},
			"confirmations": 1,
			"timestamp": {
				"epoch": 109814048,
				"unix": 1599915248,
				"human": "2020-09-12T12:54:08.000Z"
			},
			"nonce": "157"
		},
		{
			"id": "29cc21f2941a6696a330ab1949f3b35b1614028e157827b7d3b6dd7c6ee13f90",
			"blockId": "11870958866773662305",
			"version": 1,
			"type": 0,
			"typeGroup": 1,
			"amount": "1000000000",
			"fee": "6022503",
			"sender": "D6Z26L69gdk9qYmTv5uzk3uGepigtHY4ax",
			"senderPublicKey": "03d3fdad9c5b25bf8880e6b519eb3611a5c0b31adebc8455f0e096175b28321aff",
			"recipient": "DHawRTCWDw4e4YaPyF8QEdWUmxiwtVmQ5z",
			"signature": "304402206c99207d6f91aabe422f874562f71391bf0a465391047ba549eb4fe454700c53022026bfdb70bca8f2622c949aba17240a272da846923e2d988bb2ae905d2677fd51",
			"confirmations": 4900143,
			"timestamp": {
				"epoch": 52100218,
				"unix": 1542201418,
				"human": "2018-11-14T13:16:58.000Z"
			},
			"nonce": "156"
		}
	]
}
