{
	"meta": {
		"totalCountIsEstimate": true,
		"count": 15,
		"pageCount": 4,
		"totalCount": 60,
		"next": "/transactions?page=2&limit=15&transform=true",
		"previous": null,
		"self": "/transactions?page=1&limit=15&transform=true",
		"first": "/transactions?page=1&limit=15&transform=true",
		"last": "/transactions?page=4&limit=15&transform=true"
	},
	"data": [
		{
			"id": "5513d31036ffe2f2cf45aa8c09a4ae015b1dc44e9b3dfb6a841d053e59f8c635",
			"blockId": "7ac724dde7fed25f0dc73781d1dbb28cc9db536f6ab0d34cdf981906ea5fce8a",
			"version": 2,
			"type": 0,
			"typeGroup": 1,
			"amount": "100000000",
			"fee": "24703943",
			"sender": "D82V4VbutGafrTiQrjfGvTvv1TLSXgXAZ1",
			"senderPublicKey": "0262faf4f0add64aecd44d2f7223198aec5116e3c1dcd80aa4fff193aa490b3e5f",
			"recipient": "D8rr7B1d6TL6pf14LgMz4sKp1VBMs6YUYD",
			"signature": "3913a5a85220004012497a98d421e8a3b30425436ef791798c8fecdd62cc391ff3d3ed4368ff9ad2785b361fb20e79673d9a49e8505102c3e43f79f86f0d3ecc",
			"confirmations": 979,
			"timestamp": {
				"epoch": 112072216,
				"unix": 1602173416,
				"human": "2020-10-08T16:10:16.000Z"
			},
			"nonce": "231"
		},
		{
			"id": "ee2d3391f6fca2785b61371d67a23cf5df2edea63171e41f7351b4c320052446",
			"blockId": "68123f063220e3dcbb9990f6279d90f44b1811a7c7220264d924afb20dbce657",
			"version": 2,
			"type": 0,
			"typeGroup": 1,
			"amount": "100",
			"fee": "10000000",
			"sender": "D8rr7B1d6TL6pf14LgMz4sKp1VBMs6YUYD",
			"senderPublicKey": "03df6cd794a7d404db4f1b25816d8976d0e72c5177d17ac9b19a92703b62cdbbbc",
			"recipient": "DBoKkzKAT6YdXhyv1mvcKEg97JxiRqMuK2",
			"signature": "a725fb85fda2b44b64ba70cefc3e9eb260cfc636ed2d74a0f7f54ba6d91e3089404e358698440b4bd7ef7be3a11ab1c961ed66826e498f8cf0f55664693b2dc2",
			"confirmations": 98056,
			"timestamp": {
				"epoch": 111271920,
				"unix": 1601373120,
				"human": "2020-09-29T09:52:00.000Z"
			},
			"nonce": "246"
		},
		{
			"id": "ea63bf9a4b3eaf75a1dfff721967c45dce64eb7facf1aef29461868681b5c79b",
			"blockId": "4fbdbedc9d1474dc7b96e503a0aa848146d9f2b941014cd79decdd16290920a4",
			"version": 2,
			"type": 0,
			"typeGroup": 1,
			"amount": "2000000000",
			"fee": "3499657",
			"sender": "DK1f5frUPTNqhFxoyDUHwN7VC2B4Uzhpmy",
			"senderPublicKey": "02de179a4f7be8eda70aae17857643c45644186e3a854fb32154809e50e79ed452",
			"recipient": "D8rr7B1d6TL6pf14LgMz4sKp1VBMs6YUYD",
			"signature": "a953fbfee1b2b013d05c60e7de5b3a44377bf3dace0f38e286f82cd0bab73b80f106a2403879f67bb55f053b561d0f901265ee661df3c14808e0668043006da1",
			"confirmations": 1665003,
			"timestamp": {
				"epoch": 97815416,
				"unix": 1587916616,
				"human": "2020-04-26T15:56:56.000Z"
			},
			"nonce": "1"
		},
		{
			"id": "4425c04b0f0406c9a921a4c08e97251dbde5d0d11df2f20c97b08084b45cd09d",
			"blockId": "c7533675f8823fda1726b6c98cbbb8a929c85839e3e124cb1ff470b782aa6d44",
			"version": 2,
			"type": 0,
			"typeGroup": 1,
			"amount": "2000000000",
			"fee": "3499657",
			"sender": "D8rr7B1d6TL6pf14LgMz4sKp1VBMs6YUYD",
			"senderPublicKey": "03df6cd794a7d404db4f1b25816d8976d0e72c5177d17ac9b19a92703b62cdbbbc",
			"recipient": "DPKAyxsa7s9K3kQ5av8wwn9JY9a5ezxh4g",
			"signature": "fcae868136047ef446645c68def81bd2581faf1b7c12378044be2ffc9679cb58ed39adfecd6caa1e61b1af18e1c479db54f749a2d84b9d158ba343eb5b1c2bc1",
			"vendorField": "Mojca party",
			"confirmations": 1667995,
			"timestamp": {
				"epoch": 97790488,
				"unix": 1587891688,
				"human": "2020-04-26T09:01:28.000Z"
			},
			"nonce": "245"
		},
		{
			"id": "ee3739c4705393f847e41f4ccc7ba436e434a8a430cba18921b2128d6b18f0dd",
			"blockId": "f244ff257e25b72cb44028c631d07a1cee7ef451f2c85ffc1dd31a9028a4d4ce",
			"version": 2,
			"type": 0,
			"typeGroup": 1,
			"amount": "10",
			"fee": "10000000",
			"sender": "DBoKkzKAT6YdXhyv1mvcKEg97JxiRqMuK2",
			"senderPublicKey": "03591bfd6cd2d6fdce4a740185886c832caaa3bcc166819a25b5860b4303628a31",
			"recipient": "D8rr7B1d6TL6pf14LgMz4sKp1VBMs6YUYD",
			"signature": "304402200e645125e81f38c4de1c41b498623cb61fbabfafaa9698c859e84d45309f023b022021f55027cc50ebf6037898bd56168b0068c27190cd4e851fc36680adabd3b99b",
			"vendorField": "Learn-ARK Example Java - Transfer",
			"confirmations": 2054163,
			"timestamp": {
				"epoch": 94644960,
				"unix": 1584746160,
				"human": "2020-03-20T23:16:00.000Z"
			},
			"nonce": "81"
		},
		{
			"id": "b0b409f48ed878d98ada880b3d85ff8834f3363d4aff0b9fdcb38fd32acb5320",
			"blockId": "1b5bba33ea27259d1bc17454a531951d9817cb75c255830756c12d26223e7952",
			"version": 2,
			"type": 0,
			"typeGroup": 1,
			"amount": "10",
			"fee": "10000000",
			"sender": "DBoKkzKAT6YdXhyv1mvcKEg97JxiRqMuK2",
			"senderPublicKey": "03591bfd6cd2d6fdce4a740185886c832caaa3bcc166819a25b5860b4303628a31",
			"recipient": "D8rr7B1d6TL6pf14LgMz4sKp1VBMs6YUYD",
			"signature": "30450221009fe8e0d0ea52594697d6cbc002fdf85a6cd1e969519d468564d0b442eae0c6ba022037bcea7abfc4f75e0796eec4cc89dfb50b8030a3472e25706951b787d5974591",
			"vendorField": "Learn-ARK Example Java - Transfer",
			"confirmations": 2054168,
			"timestamp": {
				"epoch": 94644920,
				"unix": 1584746120,
				"human": "2020-03-20T23:15:20.000Z"
			},
			"nonce": "80"
		},
		{
			"id": "91097d212e343cb7cebc0cb34f6c7051902fe3072355514145221832bcdc6599",
			"blockId": "1676834d2de5ab7149eca154cf5ee536018595250be4238129803c6c613f2128",
			"version": 2,
			"type": 0,
			"typeGroup": 1,
			"amount": "10",
			"fee": "10000000",
			"sender": "DBoKkzKAT6YdXhyv1mvcKEg97JxiRqMuK2",
			"senderPublicKey": "03591bfd6cd2d6fdce4a740185886c832caaa3bcc166819a25b5860b4303628a31",
			"recipient": "D8rr7B1d6TL6pf14LgMz4sKp1VBMs6YUYD",
			"signature": "3044022040a8388ca7fda75a432343bb132b062ecf302fca90b166892c095453378e4dc0022054cc0a75866a744c8808724526abe92f05d32bede7cc073d12c7502991bb3a49",
			"vendorField": "Learn-ARK Example Java - Transfer",
			"confirmations": 2058339,
			"timestamp": {
				"epoch": 94610936,
				"unix": 1584712136,
				"human": "2020-03-20T13:48:56.000Z"
			},
			"nonce": "79"
		},
		{
			"id": "e6fcdca7c3f95f809c784ace7d360710128f2070ee95e21beee87312ba632d4b",
			"blockId": "8b7114f9c0e920203d865b4826ca29d764469765a1d6ae9742330addf1c02578",
			"version": 2,
			"type": 0,
			"typeGroup": 1,
			"amount": "10",
			"fee": "10000000",
			"sender": "DBoKkzKAT6YdXhyv1mvcKEg97JxiRqMuK2",
			"senderPublicKey": "03591bfd6cd2d6fdce4a740185886c832caaa3bcc166819a25b5860b4303628a31",
			"recipient": "D8rr7B1d6TL6pf14LgMz4sKp1VBMs6YUYD",
			"signature": "3045022100f87436a1fb0c90afb190e905f86ddd5fc14eed131358f2b7bbf1f4a0f401da1302203b36226398fd6e660f40417990218c2fc2ff4e7c2ade67795f7c9568edef80e2",
			"vendorField": "Learn-ARK Example Java - Transfer",
			"confirmations": 2058440,
			"timestamp": {
				"epoch": 94610128,
				"unix": 1584711328,
				"human": "2020-03-20T13:35:28.000Z"
			},
			"nonce": "75"
		},
		{
			"id": "59c8867267bed07b90567a6ac610a5b4dd4431e07789987b50f3804219618520",
			"blockId": "4dc47fa9f43c3e40972aad943d7759186c630ab98fef44941ecaf259e621e943",
			"version": 2,
			"type": 0,
			"typeGroup": 1,
			"amount": "10",
			"fee": "10000000",
			"sender": "DBoKkzKAT6YdXhyv1mvcKEg97JxiRqMuK2",
			"senderPublicKey": "03591bfd6cd2d6fdce4a740185886c832caaa3bcc166819a25b5860b4303628a31",
			"recipient": "D8rr7B1d6TL6pf14LgMz4sKp1VBMs6YUYD",
			"signature": "30440220171a3030e410187d5a39aa6f1e6f5e658c9b130d71993551003ea96462ac9ea4022066cc2867092c2f1b86b32f62d783a4b4cadab0c04c677283fa8d93723747ff4d",
			"vendorField": "Learn-ARK Example Java - Transfer",
			"confirmations": 2070937,
			"timestamp": {
				"epoch": 94510112,
				"unix": 1584611312,
				"human": "2020-03-19T09:48:32.000Z"
			},
			"nonce": "47"
		},
		{
			"id": "8c7b53e0114801a0738651d31572981dedb0b85f769fb1b84bee3724f6e63ded",
			"blockId": "4dde4e5651f18c51a6dd38108857036919adfa7d96dba3ac942593779520dbd0",
			"version": 2,
			"type": 0,
			"typeGroup": 1,
			"amount": "10",
			"fee": "10000000",
			"sender": "DBoKkzKAT6YdXhyv1mvcKEg97JxiRqMuK2",
			"senderPublicKey": "03591bfd6cd2d6fdce4a740185886c832caaa3bcc166819a25b5860b4303628a31",
			"recipient": "D8rr7B1d6TL6pf14LgMz4sKp1VBMs6YUYD",
			"signature": "3044022015232c0cdd35102cfef06eda2e9207d3ee62adee09415ee2601d6f954d2e728c022067545ce7259922520dbaa5bbd5a7fa78635e19db87b66ddc219921a75e28236d",
			"vendorField": "Java ? ? ? ?",
			"confirmations": 2071210,
			"timestamp": {
				"epoch": 94507928,
				"unix": 1584609128,
				"human": "2020-03-19T09:12:08.000Z"
			},
			"nonce": "40"
		},
		{
			"id": "1a767ebc0cc53246b9105a9f09b6c2ffa7baedcc7e632c8c1bac58f8f17389f6",
			"blockId": "da8cfe8a271c5759ae5648ca3ede759ee8c906884b25f1f6d7a2e9b852236c20",
			"version": 2,
			"type": 0,
			"typeGroup": 1,
			"amount": "10",
			"fee": "10000000",
			"sender": "DBoKkzKAT6YdXhyv1mvcKEg97JxiRqMuK2",
			"senderPublicKey": "03591bfd6cd2d6fdce4a740185886c832caaa3bcc166819a25b5860b4303628a31",
			"recipient": "D8rr7B1d6TL6pf14LgMz4sKp1VBMs6YUYD",
			"signature": "3045022100f2a58a13ac75b922d6621600012ad24e13684137e56c477bb4a2e7de335e0926022066b492da15145d492e7c9c313a0e9221717b991b7dae8de3e4619ba498223df4",
			"vendorField": "Java ? ? ? ?",
			"confirmations": 2071281,
			"timestamp": {
				"epoch": 94507360,
				"unix": 1584608560,
				"human": "2020-03-19T09:02:40.000Z"
			},
			"nonce": "37"
		},
		{
			"id": "b233eabb5f858e13174b13d85e0efa2a3d0e44e8a6d45e9e2518d88e56358428",
			"blockId": "0ef0bf8e26920e0f4ec12363f5cf3dbb10a530a5c3bb6bdecdedd9f2426572d6",
			"version": 2,
			"type": 0,
			"typeGroup": 1,
			"amount": "100",
			"fee": "10000000",
			"sender": "D8rr7B1d6TL6pf14LgMz4sKp1VBMs6YUYD",
			"senderPublicKey": "03df6cd794a7d404db4f1b25816d8976d0e72c5177d17ac9b19a92703b62cdbbbc",
			"recipient": "DBoKkzKAT6YdXhyv1mvcKEg97JxiRqMuK2",
			"signature": "04266f78ddaf436180c9833058222bba46f6efefca15ae4cc4b046debc53e97c082cbd945222d568906f13a48d19aa29de8d84681ce665219f296baca31b3b00",
			"confirmations": 2175607,
			"timestamp": {
				"epoch": 93660960,
				"unix": 1583762160,
				"human": "2020-03-09T13:56:00.000Z"
			},
			"nonce": "244"
		},
		{
			"id": "17a9ebe7bec2cfb9a3c6c7dbf1e5f5bb1aa1b7ef7439668a2b66acc67a09dcb8",
			"blockId": "13f93867bae694581bfb34a3d9a4b1c2c3ef762b3cf076aff0eeeba35cd56f08",
			"version": 2,
			"type": 0,
			"typeGroup": 1,
			"amount": "100",
			"fee": "10000000",
			"sender": "D8rr7B1d6TL6pf14LgMz4sKp1VBMs6YUYD",
			"senderPublicKey": "03df6cd794a7d404db4f1b25816d8976d0e72c5177d17ac9b19a92703b62cdbbbc",
			"recipient": "DBoKkzKAT6YdXhyv1mvcKEg97JxiRqMuK2",
			"signature": "96a7ae09933dd97406869f2a2caf31f1cd33ac34b4a86f4b7ea1d1c14c225060576bda10efba947081fb35999d5cb9fd05a54c611cb0b12d98e1f3b401ccf2d2",
			"confirmations": 2373067,
			"timestamp": {
				"epoch": 92023712,
				"unix": 1582124912,
				"human": "2020-02-19T15:08:32.000Z"
			},
			"nonce": "243"
		},
		{
			"id": "f4e802ff48ad0759d2829c1e378ee284ecf106c308405763f82749af0d4612b6",
			"blockId": "e4aecb43ff512a7b4c13827c60c65e76ad599cca84d71080c1af60cf582cb73b",
			"version": 2,
			"type": 0,
			"typeGroup": 1,
			"amount": "10",
			"fee": "10000000",
			"sender": "DBoKkzKAT6YdXhyv1mvcKEg97JxiRqMuK2",
			"senderPublicKey": "03591bfd6cd2d6fdce4a740185886c832caaa3bcc166819a25b5860b4303628a31",
			"recipient": "D8rr7B1d6TL6pf14LgMz4sKp1VBMs6YUYD",
			"signature": "3045022100cc70ff5a32900bf2d6cf7b9c0b4a3d956c3fd3b6602e01b267dd49e71d9d9b4b02207780a9b3d608d63aa6722a27a708bfba80f13098ead1dcf55e5945fdf3b478e5",
			"vendorField": "Java ? ? ? ?",
			"confirmations": 2384794,
			"timestamp": {
				"epoch": 91926912,
				"unix": 1582028112,
				"human": "2020-02-18T12:15:12.000Z"
			},
			"nonce": "33"
		},
		{
			"id": "5e1912212980b20b9fb70f27fda6dc86fe19c8650a039813130a2f7993447f3b",
			"blockId": "5423211d7d949db385446bd2bf6ac73b2d12b416aff6c86f9b80c35abfa4afb6",
			"version": 2,
			"type": 0,
			"typeGroup": 1,
			"amount": "10",
			"fee": "10000000",
			"sender": "D8rr7B1d6TL6pf14LgMz4sKp1VBMs6YUYD",
			"senderPublicKey": "03df6cd794a7d404db4f1b25816d8976d0e72c5177d17ac9b19a92703b62cdbbbc",
			"recipient": "D8rr7B1d6TL6pf14LgMz4sKp1VBMs6YUYD",
			"signature": "3044022002baffebafc988067146ce550d5a09b3d2174e45b5a3b70a552991ecbeb24d9a022012adafe7f8b0a10bf47cb41b2f4a257b96e3b181e00acd1571a11947c82a0448",
			"confirmations": 2394259,
			"timestamp": {
				"epoch": 91835496,
				"unix": 1581936696,
				"human": "2020-02-17T10:51:36.000Z"
			},
			"nonce": "242"
		}
	]
}
