{
	"data": [
		{
			"id": 420,
			"text": "Government representatives want to attack encryption and implement mandatory backdoors to access your information, what does this mean for you? https://blog.ark.io/new-anti-encryption-bill-is-the-largest-threat-to-our-privacy-today-68a85216ed2d",
			"links": [
				"https://blog.ark.io/new-anti-encryption-bill-is-the-largest-threat-to-our-privacy-today-68a85216ed2d"
			],
			"category": "Community",
			"author": { "title": "Co-Founder", "name": "Travis Walker", "team": "Team Ark" },
			"is_featured": false,
			"created_at": "2020-07-15T17:43:57.000000Z",
			"updated_at": "2020-07-15T17:43:57.000000Z"
		},
		{
			"id": 421,
			"text": "Introducing ARK's Platform SDK, a new industry standard to assist developers in integrating all of the industries different coins and platforms. Currently supporting 10+ projects. https://blog.ark.io/arks-platform-sdk-interacting-with-blockchain-networks-simplified-f8a0a6900b0f",
			"links": [
				"https://blog.ark.io/arks-platform-sdk-interacting-with-blockchain-networks-simplified-f8a0a6900b0f"
			],
			"category": "Technical",
			"author": { "title": "Co-Founder", "name": "Travis Walker", "team": "Team Ark" },
			"is_featured": false,
			"created_at": "2020-07-14T17:37:50.000000Z",
			"updated_at": "2020-07-14T17:37:50.000000Z"
		},
		{
			"id": 422,
			"text": "With the recent ARK Desktop Wallet updates for v2.9.3, we want to go over some changes and features with a new walk through video. https://youtu.be/AslAEyPZnXQ",
			"links": ["https://youtu.be/AslAEyPZnXQ"],
			"category": "Community",
			"author": { "title": "Co-Founder", "name": "Travis Walker", "team": "Team Ark" },
			"is_featured": false,
			"created_at": "2020-07-13T16:15:17.000000Z",
			"updated_at": "2020-07-13T16:15:17.000000Z"
		},
		{
			"id": 423,
			"text": "Want to learn more about MarketSquare? Join the ARK Team in this roundtable video as we discuss this newest upcoming product in greater detail. https://youtu.be/BAq3eDfBj98",
			"links": ["https://youtu.be/BAq3eDfBj98"],
			"category": "Marketing",
			"author": { "title": "Co-Founder", "name": "Travis Walker", "team": "Team Ark" },
			"is_featured": false,
			"created_at": "2020-07-10T17:04:36.000000Z",
			"updated_at": "2020-07-10T17:04:36.000000Z"
		},
		{
			"id": 424,
			"text": "UPDATE: ARK Desktop Wallet v2.9.3 is now available. This version has changed the send modal to be more intuitive, fixed the URI scheme and the initialization loading screen freeze. https://blog.ark.io/ark-desktop-wallet-v2-9-3-released-6d3c4469dfd",
			"links": ["https://blog.ark.io/ark-desktop-wallet-v2-9-3-released-6d3c4469dfd"],
			"category": "Community",
			"author": { "title": "Co-Founder", "name": "Travis Walker", "team": "Team Ark" },
			"is_featured": false,
			"created_at": "2020-07-09T18:21:57.000000Z",
			"updated_at": "2020-07-09T18:21:57.000000Z"
		},
		{
			"id": 425,
			"text": "Can blockchain improve the chain of custody and authentication of digital evidence? https://blog.ark.io/how-blockchain-technology-can-improve-policing-and-public-safety-bd5fab4f95f8",
			"links": [
				"https://blog.ark.io/how-blockchain-technology-can-improve-policing-and-public-safety-bd5fab4f95f8"
			],
			"category": "Marketing",
			"author": { "title": "Co-Founder", "name": "Travis Walker", "team": "Team Ark" },
			"is_featured": false,
			"created_at": "2020-07-08T17:06:41.000000Z",
			"updated_at": "2020-07-08T17:06:41.000000Z"
		},
		{
			"id": 426,
			"text": "Today we want to give everyone a peek behind the scenes and go over the tools and frameworks the ARK team uses in their everyday development practices. https://blog.ark.io/behind-the-curtains-ark-tooling-64341195a052",
			"links": ["https://blog.ark.io/behind-the-curtains-ark-tooling-64341195a052"],
			"category": "Technical",
			"author": { "title": "Co-Founder", "name": "Travis Walker", "team": "Team Ark" },
			"is_featured": false,
			"created_at": "2020-07-07T17:58:39.000000Z",
			"updated_at": "2020-07-07T17:58:39.000000Z"
		},
		{
			"id": 427,
			"text": "Powered by ARK member nOS, is planning an August Mainnet launch. Let's check in with our partner to see all the hard work and new features they are implementing. https://blog.ark.io/nos-making-strides-as-they-approach-mainnet-release-b9692288fe6c",
			"links": ["https://blog.ark.io/nos-making-strides-as-they-approach-mainnet-release-b9692288fe6c"],
			"category": "Community",
			"author": { "title": "Co-Founder", "name": "Travis Walker", "team": "Team Ark" },
			"is_featured": false,
			"created_at": "2020-07-06T16:46:42.000000Z",
			"updated_at": "2020-07-06T16:46:42.000000Z"
		},
		{
			"id": 428,
			"text": "The 82nd episode of the ARK Crypto Podcast is here! This week, we go over everything you might have missed that happened recently for ARK. https://ark.io/podcast/ark-crypto-podcast-082-arkio-monthly-update-june-2020",
			"links": ["https://ark.io/podcast/ark-crypto-podcast-082-arkio-monthly-update-june-2020"],
			"category": "Marketing",
			"author": { "title": "Co-Founder", "name": "Travis Walker", "team": "Team Ark" },
			"is_featured": false,
			"created_at": "2020-07-03T18:57:10.000000Z",
			"updated_at": "2020-07-03T18:57:10.000000Z"
		},
		{
			"id": 429,
			"text": "June is over and it's time for the Monthly Update. This blog post will cover last month\u2019s highlights, activities, development, partner activities, news and updates of our upcoming releases. https://blog.ark.io/ark-monthly-update-june-2020-edition-279a3dd47a36",
			"links": ["https://blog.ark.io/ark-monthly-update-june-2020-edition-279a3dd47a36"],
			"category": "Marketing",
			"author": { "title": "Co-Founder", "name": "Travis Walker", "team": "Team Ark" },
			"is_featured": false,
			"created_at": "2020-07-03T16:20:04.000000Z",
			"updated_at": "2020-07-03T16:20:04.000000Z"
		},
		{
			"id": 430,
			"text": "June is behind us and it is time once again for the Monthly Development Report. With over 250k lines of code added, June was very productive. Let's go deep into detail in the blog post. https://blog.ark.io/ark-development-report-june-2020-20c2a42857a5",
			"links": ["https://blog.ark.io/ark-development-report-june-2020-20c2a42857a5"],
			"category": "Technical",
			"author": { "title": "Co-Founder", "name": "Travis Walker", "team": "Team Ark" },
			"is_featured": false,
			"created_at": "2020-07-02T15:59:52.000000Z",
			"updated_at": "2020-07-02T15:59:52.000000Z"
		},
		{
			"id": 431,
			"text": "June is over and so is the June GitHub Bounty Program. Let's go over the winners and their pull requests. If you're a developer that wants to earn and learn it's never too late to join in. https://blog.ark.io/ark-github-development-bounty-program-june-2020-3eedd68062ff",
			"links": ["https://blog.ark.io/ark-github-development-bounty-program-june-2020-3eedd68062ff"],
			"category": "Community",
			"author": { "title": "Co-Founder", "name": "Travis Walker", "team": "Team Ark" },
			"is_featured": false,
			"created_at": "2020-07-01T19:02:18.000000Z",
			"updated_at": "2020-07-01T19:02:18.000000Z"
		},
		{
			"id": 432,
			"text": "Can evidence stored on a blockchain give courts and individuals the necessary tools to resolve legal disputes? https://blog.ark.io/how-blockchain-technology-can-resolve-legal-disputes-7e73ab69211c",
			"links": ["https://blog.ark.io/how-blockchain-technology-can-resolve-legal-disputes-7e73ab69211c"],
			"category": "Marketing",
			"author": { "title": "Co-Founder", "name": "Travis Walker", "team": "Team Ark" },
			"is_featured": false,
			"created_at": "2020-06-29T18:53:29.000000Z",
			"updated_at": "2020-06-29T18:53:29.000000Z"
		},
		{
			"id": 433,
			"text": "The 81st episode of the ARK Crypto Podcast is here! This week, we bring you part two of an interview featuring the team at Protokol, the new ARK enterprise division. https://ark.io/podcast/ark-crypto-podcast-081-protokol-enterprise-solutions-soft-launch-interview-part-2",
			"links": [
				"https://ark.io/podcast/ark-crypto-podcast-081-protokol-enterprise-solutions-soft-launch-interview-part-2"
			],
			"category": "Marketing",
			"author": { "title": "Co-Founder", "name": "Travis Walker", "team": "Team Ark" },
			"is_featured": false,
			"created_at": "2020-06-26T15:44:09.000000Z",
			"updated_at": "2020-06-26T15:44:09.000000Z"
		},
		{
			"id": 434,
			"text": "MarketSquare is ARK's newest upcoming product that will serve as the new homepage for the decentralized web. Let's peek behind the curtain with this sneak preview and go into more details. https://blog.ark.io/an-inside-look-at-arks-upcoming-marketsquare-8895beeacc80",
			"links": ["https://blog.ark.io/an-inside-look-at-arks-upcoming-marketsquare-8895beeacc80"],
			"category": "Marketing",
			"author": { "title": "Co-Founder", "name": "Travis Walker", "team": "Team Ark" },
			"is_featured": false,
			"created_at": "2020-06-25T16:07:22.000000Z",
			"updated_at": "2020-06-25T16:07:22.000000Z"
		}
	],
	"links": {
		"first": "https://platform.ark.io/api/coins/signals?coins=ARK&page=1",
		"last": "https://platform.ark.io/api/coins/signals?coins=ARK&page=28",
		"prev": "https://platform.ark.io/api/coins/signals?coins=ARK&page=1",
		"next": "https://platform.ark.io/api/coins/signals?coins=ARK&page=3"
	},
	"meta": {
		"current_page": 2,
		"from": 16,
		"last_page": 28,
		"path": "https://platform.ark.io/api/coins/signals?coins=ARK",
		"per_page": 15,
		"to": 30,
		"total": 411
	}
}
