{
	"meta": {
		"count": 100,
		"pageCount": 2,
		"totalCount": 128,
		"next": "/peers?page=2&limit=100",
		"previous": null,
		"self": "/peers?page=1&limit=100",
		"first": "/peers?page=1&limit=100",
		"last": "/peers?page=2&limit=100"
	},
	"data": [
		{
			"ip": "5.135.143.111",
			"port": 4001,
			"ports": {
				"@arkecosystem/core-api": 4003,
				"@arkecosystem/core-wallet-api": 4040,
				"@arkecosystem/core-webhooks": -1,
				"@arkecosystem/core-exchange-json-rpc": -1
			},
			"version": "2.7.0",
			"height": 13931197,
			"latency": 21
		},
		{
			"ip": "51.91.13.6",
			"port": 4001,
			"ports": {
				"@arkecosystem/core-api": 4003,
				"@arkecosystem/core-wallet-api": -1,
				"@arkecosystem/core-webhooks": -1,
				"@arkecosystem/core-exchange-json-rpc": -1
			},
			"version": "2.7.0",
			"height": 13931190,
			"latency": 35
		},
		{
			"ip": "54.38.119.242",
			"port": 4001,
			"ports": {
				"@arkecosystem/core-api": 4003,
				"@arkecosystem/core-wallet-api": 4040,
				"@arkecosystem/core-webhooks": -1,
				"@arkecosystem/core-exchange-json-rpc": -1
			},
			"version": "2.7.1",
			"height": 13931201,
			"latency": 44
		},
		{
			"ip": "116.202.104.5",
			"port": 4001,
			"ports": {
				"@arkecosystem/core-api": 4003,
				"@arkecosystem/core-wallet-api": 4040,
				"@arkecosystem/core-webhooks": -1,
				"@arkecosystem/core-exchange-json-rpc": -1
			},
			"version": "2.7.0",
			"height": 13931201,
			"latency": 45
		},
		{
			"ip": "54.36.121.115",
			"port": 4001,
			"ports": {
				"@arkecosystem/core-api": 4003,
				"@arkecosystem/core-wallet-api": 4040,
				"@arkecosystem/core-webhooks": -1,
				"@arkecosystem/core-exchange-json-rpc": -1
			},
			"version": "2.7.1",
			"height": 13931201,
			"latency": 46
		},
		{
			"ip": "46.105.98.157",
			"port": 4001,
			"ports": {
				"@arkecosystem/core-api": -1,
				"@arkecosystem/core-webhooks": -1
			},
			"version": "2.7.0",
			"height": 13931201,
			"latency": 46
		},
		{
			"ip": "195.201.30.226",
			"port": 4001,
			"ports": {
				"@arkecosystem/core-api": 4003,
				"@arkecosystem/core-wallet-api": 4040,
				"@arkecosystem/core-webhooks": -1,
				"@arkecosystem/core-exchange-json-rpc": -1
			},
			"version": "2.7.0",
			"height": 13931201,
			"latency": 47
		},
		{
			"ip": "95.179.136.183",
			"port": 4001,
			"ports": {
				"@arkecosystem/core-api": -1,
				"@arkecosystem/core-wallet-api": -1,
				"@arkecosystem/core-webhooks": -1,
				"@arkecosystem/core-exchange-json-rpc": -1
			},
			"version": "2.7.1",
			"height": 13931201,
			"latency": 47
		},
		{
			"ip": "5.196.105.39",
			"port": 4001,
			"ports": {
				"@arkecosystem/core-api": 4003,
				"@arkecosystem/core-wallet-api": 4040,
				"@arkecosystem/core-webhooks": -1,
				"@arkecosystem/core-exchange-json-rpc": -1
			},
			"version": "2.7.1",
			"height": 13931200,
			"latency": 49
		},
		{
			"ip": "213.32.41.110",
			"port": 4001,
			"ports": {
				"@arkecosystem/core-api": 4003,
				"@arkecosystem/core-wallet-api": 4040,
				"@arkecosystem/core-webhooks": -1,
				"@arkecosystem/core-exchange-json-rpc": -1
			},
			"version": "2.7.1",
			"height": 13931201,
			"latency": 72
		},
		{
			"ip": "167.71.5.96",
			"port": 4001,
			"ports": {
				"@arkecosystem/core-api": 4003,
				"@arkecosystem/core-wallet-api": 4040,
				"@arkecosystem/core-webhooks": -1,
				"@arkecosystem/core-exchange-json-rpc": -1
			},
			"version": "2.7.1",
			"height": 13931201,
			"latency": 72
		},
		{
			"ip": "178.62.211.47",
			"port": 4001,
			"ports": {
				"@arkecosystem/core-api": 4003,
				"@arkecosystem/core-wallet-api": 4040,
				"@arkecosystem/core-webhooks": -1,
				"@arkecosystem/core-exchange-json-rpc": -1
			},
			"version": "2.7.1",
			"height": 13931201,
			"latency": 72
		},
		{
			"ip": "46.4.82.232",
			"port": 4001,
			"ports": {
				"@arkecosystem/core-api": -1,
				"@arkecosystem/core-webhooks": -1
			},
			"version": "2.7.1",
			"height": 13931201,
			"latency": 72
		},
		{
			"ip": "116.203.78.110",
			"port": 4001,
			"ports": {
				"@arkecosystem/core-api": 4003,
				"@arkecosystem/core-wallet-api": 4040,
				"@arkecosystem/core-webhooks": -1,
				"@arkecosystem/core-exchange-json-rpc": -1
			},
			"version": "2.7.0",
			"height": 13931201,
			"latency": 73
		},
		{
			"ip": "78.46.134.164",
			"port": 4001,
			"ports": {
				"@arkecosystem/core-api": 4003,
				"@arkecosystem/core-wallet-api": 4040,
				"@arkecosystem/core-webhooks": -1,
				"@arkecosystem/core-exchange-json-rpc": -1
			},
			"version": "2.7.0",
			"height": 13931201,
			"latency": 73
		},
		{
			"ip": "49.12.3.144",
			"port": 4001,
			"ports": {
				"@arkecosystem/core-api": 4003,
				"@arkecosystem/core-wallet-api": 4040,
				"@arkecosystem/core-webhooks": -1,
				"@arkecosystem/core-exchange-json-rpc": -1
			},
			"version": "2.7.0",
			"height": 13931201,
			"latency": 73
		},
		{
			"ip": "116.203.178.155",
			"port": 4001,
			"ports": {
				"@arkecosystem/core-api": -1,
				"@arkecosystem/core-wallet-api": -1,
				"@arkecosystem/core-webhooks": -1,
				"@arkecosystem/core-exchange-json-rpc": -1
			},
			"version": "2.7.1",
			"height": 13931201,
			"latency": 73
		},
		{
			"ip": "85.235.64.251",
			"port": 4001,
			"ports": {
				"@arkecosystem/core-wallet-api": -1,
				"@arkecosystem/core-api": -1,
				"@arkecosystem/core-webhooks": -1,
				"@arkecosystem/core-exchange-json-rpc": -1
			},
			"version": "2.7.0",
			"height": 13931201,
			"latency": 81
		},
		{
			"ip": "85.235.65.213",
			"port": 4001,
			"ports": {
				"@arkecosystem/core-api": 4003,
				"@arkecosystem/core-wallet-api": -1,
				"@arkecosystem/core-webhooks": -1,
				"@arkecosystem/core-exchange-json-rpc": -1
			},
			"version": "2.7.1",
			"height": 13931201,
			"latency": 81
		},
		{
			"ip": "116.203.54.213",
			"port": 4001,
			"ports": {
				"@arkecosystem/core-api": 4003,
				"@arkecosystem/core-wallet-api": 4040,
				"@arkecosystem/core-webhooks": -1,
				"@arkecosystem/core-exchange-json-rpc": -1
			},
			"version": "2.7.0",
			"height": 13931193,
			"latency": 82
		},
		{
			"ip": "149.56.28.196",
			"port": 4001,
			"ports": {
				"@arkecosystem/core-wallet-api": -1,
				"@arkecosystem/core-api": -1,
				"@arkecosystem/core-webhooks": -1,
				"@arkecosystem/core-exchange-json-rpc": -1
			},
			"version": "2.7.1",
			"height": 13931200,
			"latency": 88
		},
		{
			"ip": "51.255.81.175",
			"port": 4001,
			"ports": {
				"@arkecosystem/core-api": 4003,
				"@arkecosystem/core-wallet-api": 4040,
				"@arkecosystem/core-webhooks": -1,
				"@arkecosystem/core-exchange-json-rpc": -1
			},
			"version": "2.7.1",
			"height": 13931197,
			"latency": 92
		},
		{
			"ip": "152.89.107.48",
			"port": 4001,
			"ports": {
				"@arkecosystem/core-api": -1,
				"@arkecosystem/core-wallet-api": -1,
				"@arkecosystem/core-webhooks": -1,
				"@arkecosystem/core-exchange-json-rpc": -1
			},
			"version": "2.7.0",
			"height": 13931193,
			"latency": 93
		},
		{
			"ip": "54.38.119.241",
			"port": 4001,
			"ports": {
				"@arkecosystem/core-api": 4003,
				"@arkecosystem/core-wallet-api": 4040,
				"@arkecosystem/core-webhooks": -1,
				"@arkecosystem/core-exchange-json-rpc": -1
			},
			"version": "2.7.1",
			"height": 13931193,
			"latency": 94
		},
		{
			"ip": "164.90.227.223",
			"port": 4001,
			"ports": {
				"@arkecosystem/core-api": 4003,
				"@arkecosystem/core-wallet-api": 4040,
				"@arkecosystem/core-webhooks": -1,
				"@arkecosystem/core-exchange-json-rpc": -1
			},
			"version": "2.7.0",
			"height": 13931201,
			"latency": 99
		},
		{
			"ip": "46.105.160.107",
			"port": 4001,
			"ports": {
				"@arkecosystem/core-api": 4003,
				"@arkecosystem/core-wallet-api": 4040,
				"@arkecosystem/core-webhooks": -1,
				"@arkecosystem/core-exchange-json-rpc": -1
			},
			"version": "2.7.1",
			"height": 13931200,
			"latency": 100
		},
		{
			"ip": "51.158.184.249",
			"port": 4001,
			"ports": {
				"@arkecosystem/core-api": -1,
				"@arkecosystem/core-wallet-api": -1,
				"@arkecosystem/core-webhooks": -1,
				"@arkecosystem/core-exchange-json-rpc": -1
			},
			"version": "2.7.1",
			"height": 13931201,
			"latency": 100
		},
		{
			"ip": "144.91.90.203",
			"port": 4001,
			"ports": {
				"@arkecosystem/core-api": 4003,
				"@arkecosystem/core-wallet-api": 4040,
				"@arkecosystem/core-webhooks": -1,
				"@arkecosystem/core-exchange-json-rpc": -1
			},
			"version": "2.7.1",
			"height": 13931201,
			"latency": 100
		},
		{
			"ip": "95.217.131.165",
			"port": 4001,
			"ports": {
				"@arkecosystem/core-api": 4003,
				"@arkecosystem/core-wallet-api": 4040,
				"@arkecosystem/core-webhooks": -1,
				"@arkecosystem/core-exchange-json-rpc": -1
			},
			"version": "2.7.1",
			"height": 13931201,
			"latency": 100
		},
		{
			"ip": "69.164.215.82",
			"port": 4001,
			"ports": {
				"@arkecosystem/core-wallet-api": 4040,
				"@arkecosystem/core-api": 4003,
				"@arkecosystem/core-webhooks": -1,
				"@arkecosystem/core-exchange-json-rpc": -1
			},
			"version": "2.7.1",
			"height": 13931201,
			"latency": 100
		},
		{
			"ip": "95.216.24.144",
			"port": 4001,
			"ports": {
				"@arkecosystem/core-api": -1,
				"@arkecosystem/core-wallet-api": -1,
				"@arkecosystem/core-webhooks": -1,
				"@arkecosystem/core-exchange-json-rpc": -1
			},
			"version": "2.6.31",
			"height": 13931193,
			"latency": 101
		},
		{
			"ip": "51.79.17.142",
			"port": 4001,
			"ports": {
				"@arkecosystem/core-api": -1,
				"@arkecosystem/core-wallet-api": -1,
				"@arkecosystem/core-webhooks": -1,
				"@arkecosystem/core-exchange-json-rpc": -1
			},
			"version": "2.7.1",
			"height": 13931201,
			"latency": 101
		},
		{
			"ip": "142.93.76.19",
			"port": 4001,
			"ports": {
				"@deadlock-delegate/core-stats": -1,
				"@arkecosystem/core-api": 4003,
				"@arkecosystem/core-wallet-api": -1,
				"@arkecosystem/core-webhooks": -1,
				"@arkecosystem/core-exchange-json-rpc": -1
			},
			"version": "2.7.1",
			"height": 13931201,
			"latency": 101
		},
		{
			"ip": "193.31.26.61",
			"port": 4001,
			"ports": {
				"@arkecosystem/core-wallet-api": -1,
				"@arkecosystem/core-api": -1,
				"@arkecosystem/core-webhooks": -1,
				"@arkecosystem/core-json-rpc": -1
			},
			"version": "2.7.0",
			"height": 13931201,
			"latency": 102
		},
		{
			"ip": "213.32.41.105",
			"port": 4001,
			"ports": {
				"@arkecosystem/core-api": 4003,
				"@arkecosystem/core-wallet-api": 4040,
				"@arkecosystem/core-webhooks": -1,
				"@arkecosystem/core-exchange-json-rpc": -1
			},
			"version": "2.7.1",
			"height": 13931200,
			"latency": 112
		},
		{
			"ip": "78.46.173.245",
			"port": 4001,
			"ports": {
				"@arkecosystem/core-api": -1,
				"@arkecosystem/core-webhooks": -1,
				"@arkecosystem/core-exchange-json-rpc": -1
			},
			"version": "2.7.0",
			"height": 13931197,
			"latency": 115
		},
		{
			"ip": "94.130.73.171",
			"port": 4001,
			"ports": {
				"@arkecosystem/core-api": -1,
				"@arkecosystem/core-wallet-api": -1,
				"@arkecosystem/core-webhooks": -1,
				"@arkecosystem/core-exchange-json-rpc": -1
			},
			"version": "2.7.0",
			"height": 13931197,
			"latency": 116
		},
		{
			"ip": "5.196.105.33",
			"port": 4001,
			"ports": {
				"@arkecosystem/core-api": 4003,
				"@arkecosystem/core-wallet-api": 4040,
				"@arkecosystem/core-webhooks": -1,
				"@arkecosystem/core-exchange-json-rpc": -1
			},
			"version": "2.7.0",
			"height": 13931197,
			"latency": 117
		},
		{
			"ip": "213.32.9.96",
			"port": 4001,
			"ports": {
				"@arkecosystem/core-api": 4003,
				"@arkecosystem/core-wallet-api": 4040,
				"@arkecosystem/core-webhooks": -1,
				"@arkecosystem/core-exchange-json-rpc": -1
			},
			"version": "2.7.1",
			"height": 13931197,
			"latency": 117
		},
		{
			"ip": "178.62.247.235",
			"port": 4001,
			"ports": {
				"@arkecosystem/core-wallet-api": 4040,
				"@arkecosystem/core-api": 4003,
				"@arkecosystem/core-webhooks": -1,
				"@arkecosystem/core-json-rpc": -1
			},
			"version": "2.7.0",
			"height": 13931197,
			"latency": 117
		},
		{
			"ip": "51.210.14.55",
			"port": 4001,
			"ports": {
				"@arkecosystem/core-api": -1,
				"@arkecosystem/core-wallet-api": -1,
				"@arkecosystem/core-webhooks": -1,
				"@arkecosystem/core-exchange-json-rpc": -1
			},
			"version": "2.7.0",
			"height": 13931197,
			"latency": 117
		},
		{
			"ip": "95.217.196.24",
			"port": 4001,
			"ports": {
				"@arkecosystem/core-api": 4003,
				"@arkecosystem/core-wallet-api": -1,
				"@arkecosystem/core-webhooks": -1,
				"@arkecosystem/core-exchange-json-rpc": -1
			},
			"version": "2.7.1",
			"height": 13931197,
			"latency": 117
		},
		{
			"ip": "51.68.197.248",
			"port": 4001,
			"ports": {
				"@arkecosystem/core-wallet-api": 4040,
				"@arkecosystem/core-api": 4003,
				"@arkecosystem/core-webhooks": -1,
				"@arkecosystem/core-exchange-json-rpc": -1
			},
			"version": "2.7.1",
			"height": 13931197,
			"latency": 117
		},
		{
			"ip": "116.203.42.131",
			"port": 4001,
			"ports": {
				"@arkecosystem/core-api": 4003,
				"@arkecosystem/core-wallet-api": 4040,
				"@arkecosystem/core-webhooks": -1,
				"@arkecosystem/core-exchange-json-rpc": -1
			},
			"version": "2.7.0",
			"height": 13931197,
			"latency": 118
		},
		{
			"ip": "94.237.25.100",
			"port": 4001,
			"ports": {
				"@arkecosystem/core-wallet-api": -1,
				"@arkecosystem/core-api": -1,
				"@arkecosystem/core-webhooks": -1
			},
			"version": "2.7.0",
			"height": 13931197,
			"latency": 118
		},
		{
			"ip": "161.35.79.240",
			"port": 4001,
			"ports": {
				"@arkecosystem/core-api": 4003,
				"@arkecosystem/core-wallet-api": 4040,
				"@arkecosystem/core-webhooks": -1,
				"@arkecosystem/core-exchange-json-rpc": -1
			},
			"version": "2.7.0",
			"height": 13931197,
			"latency": 118
		},
		{
			"ip": "49.12.0.71",
			"port": 4001,
			"ports": {
				"@arkecosystem/core-api": 4003,
				"@arkecosystem/core-wallet-api": 4040,
				"@arkecosystem/core-webhooks": -1,
				"@arkecosystem/core-exchange-json-rpc": -1
			},
			"version": "2.7.0",
			"height": 13931197,
			"latency": 119
		},
		{
			"ip": "185.170.113.62",
			"port": 4001,
			"ports": {
				"@arkecosystem/core-api": 4003,
				"@arkecosystem/core-wallet-api": 4040,
				"@arkecosystem/core-webhooks": -1,
				"@arkecosystem/core-exchange-json-rpc": -1
			},
			"version": "2.7.0",
			"height": 13931197,
			"latency": 119
		},
		{
			"ip": "213.32.41.104",
			"port": 4001,
			"ports": {
				"@arkecosystem/core-api": 4003,
				"@arkecosystem/core-wallet-api": 4040,
				"@arkecosystem/core-webhooks": -1,
				"@arkecosystem/core-exchange-json-rpc": -1
			},
			"version": "2.7.1",
			"height": 13931201,
			"latency": 119
		},
		{
			"ip": "51.210.14.66",
			"port": 4001,
			"ports": {
				"@arkecosystem/core-api": -1,
				"@arkecosystem/core-wallet-api": -1,
				"@arkecosystem/core-webhooks": -1,
				"@arkecosystem/core-exchange-json-rpc": -1
			},
			"version": "2.7.1",
			"height": 13931201,
			"latency": 119
		},
		{
			"ip": "135.181.89.10",
			"port": 4001,
			"ports": {
				"@arkecosystem/core-api": 4003,
				"@arkecosystem/core-wallet-api": 4040,
				"@arkecosystem/core-webhooks": -1,
				"@arkecosystem/core-exchange-json-rpc": -1
			},
			"version": "2.6.57",
			"height": 13931197,
			"latency": 123
		},
		{
			"ip": "50.116.43.178",
			"port": 4001,
			"ports": {
				"@arkecosystem/core-wallet-api": 4040,
				"@arkecosystem/core-api": 4003,
				"@arkecosystem/core-webhooks": -1,
				"@arkecosystem/core-exchange-json-rpc": -1
			},
			"version": "2.7.1",
			"height": 13931201,
			"latency": 131
		},
		{
			"ip": "95.217.181.192",
			"port": 4001,
			"ports": {
				"@arkecosystem/core-api": -1,
				"@arkecosystem/core-wallet-api": -1,
				"@arkecosystem/core-webhooks": -1,
				"@arkecosystem/core-exchange-json-rpc": -1
			},
			"version": "2.7.1",
			"height": 13931197,
			"latency": 147
		},
		{
			"ip": "94.16.115.113",
			"port": 4001,
			"ports": {
				"@arkecosystem/core-wallet-api": -1,
				"@arkecosystem/core-api": -1,
				"@arkecosystem/core-webhooks": -1,
				"@arkecosystem/core-exchange-json-rpc": -1
			},
			"version": "2.7.1",
			"height": 13931197,
			"latency": 152
		},
		{
			"ip": "52.191.248.94",
			"port": 4001,
			"ports": {
				"@arkecosystem/core-api": -1,
				"@arkecosystem/core-wallet-api": -1,
				"@arkecosystem/core-webhooks": -1,
				"@arkecosystem/core-exchange-json-rpc": -1
			},
			"version": "2.7.0",
			"height": 13931197,
			"latency": 153
		},
		{
			"ip": "5.196.105.43",
			"port": 4001,
			"ports": {
				"@arkecosystem/core-api": 4003,
				"@arkecosystem/core-wallet-api": 4040,
				"@arkecosystem/core-webhooks": -1,
				"@arkecosystem/core-exchange-json-rpc": -1
			},
			"version": "2.7.0",
			"height": 13931197,
			"latency": 155
		},
		{
			"ip": "5.135.22.95",
			"port": 4001,
			"ports": {
				"@arkecosystem/core-api": 4003,
				"@arkecosystem/core-wallet-api": 4040,
				"@arkecosystem/core-webhooks": -1,
				"@arkecosystem/core-exchange-json-rpc": -1
			},
			"version": "2.7.1",
			"height": 13931197,
			"latency": 157
		},
		{
			"ip": "178.32.65.140",
			"port": 4001,
			"ports": {
				"@arkecosystem/core-api": 4003,
				"@arkecosystem/core-wallet-api": 4040,
				"@arkecosystem/core-webhooks": -1,
				"@arkecosystem/core-exchange-json-rpc": -1
			},
			"version": "2.7.0",
			"height": 13931200,
			"latency": 167
		},
		{
			"ip": "116.203.231.63",
			"port": 4001,
			"ports": {
				"@arkecosystem/core-api": -1,
				"@arkecosystem/core-wallet-api": -1,
				"@arkecosystem/core-webhooks": -1,
				"@arkecosystem/core-exchange-json-rpc": -1
			},
			"version": "2.7.1",
			"height": 13931192,
			"latency": 176
		},
		{
			"ip": "176.103.48.37",
			"port": 4001,
			"ports": {
				"@arkecosystem/core-wallet-api": 4040,
				"@arkecosystem/core-api": 4003,
				"@arkecosystem/core-webhooks": -1,
				"@arkecosystem/core-exchange-json-rpc": -1
			},
			"version": "2.7.0",
			"height": 13931193,
			"latency": 206
		},
		{
			"ip": "5.196.105.46",
			"port": 4001,
			"ports": {
				"@arkecosystem/core-api": 4003,
				"@arkecosystem/core-wallet-api": 4040,
				"@arkecosystem/core-webhooks": -1,
				"@arkecosystem/core-exchange-json-rpc": -1
			},
			"version": "2.7.0",
			"height": 13931192,
			"latency": 247
		},
		{
			"ip": "142.93.152.23",
			"port": 4001,
			"ports": {
				"@arkecosystem/core-api": 4003,
				"@arkecosystem/core-wallet-api": 4040,
				"@arkecosystem/core-webhooks": -1,
				"@arkecosystem/core-exchange-json-rpc": -1
			},
			"version": "2.7.1",
			"height": 13931192,
			"latency": 251
		},
		{
			"ip": "45.79.202.59",
			"port": 4001,
			"ports": {
				"@arkecosystem/core-api": -1,
				"@arkecosystem/core-wallet-api": -1,
				"@arkecosystem/core-webhooks": -1,
				"@arkecosystem/core-exchange-json-rpc": -1
			},
			"version": "2.6.52",
			"height": 13931197,
			"latency": 252
		},
		{
			"ip": "213.32.41.108",
			"port": 4001,
			"ports": {
				"@arkecosystem/core-api": 4003,
				"@arkecosystem/core-wallet-api": 4040,
				"@arkecosystem/core-webhooks": -1,
				"@arkecosystem/core-exchange-json-rpc": -1
			},
			"version": "2.7.1",
			"height": 13931197,
			"latency": 255
		},
		{
			"ip": "172.107.205.188",
			"port": 4001,
			"ports": {
				"@arkecosystem/core-api": 4003,
				"@arkecosystem/core-wallet-api": 4040,
				"@arkecosystem/core-webhooks": -1,
				"@arkecosystem/core-exchange-json-rpc": -1
			},
			"version": "2.7.1",
			"height": 13931197,
			"latency": 255
		},
		{
			"ip": "5.196.105.37",
			"port": 4001,
			"ports": {
				"@arkecosystem/core-api": 4003,
				"@arkecosystem/core-wallet-api": 4040,
				"@arkecosystem/core-webhooks": -1,
				"@arkecosystem/core-exchange-json-rpc": -1
			},
			"version": "2.7.0",
			"height": 13931197,
			"latency": 256
		},
		{
			"ip": "37.59.70.164",
			"port": 4001,
			"ports": {
				"@arkecosystem/core-api": 4003,
				"@arkecosystem/core-wallet-api": 4040,
				"@arkecosystem/core-webhooks": -1,
				"@arkecosystem/core-exchange-json-rpc": -1
			},
			"version": "2.7.1",
			"height": 13931197,
			"latency": 256
		},
		{
			"ip": "5.196.105.32",
			"port": 4001,
			"ports": {
				"@arkecosystem/core-api": 4003,
				"@arkecosystem/core-wallet-api": 4040,
				"@arkecosystem/core-webhooks": -1,
				"@arkecosystem/core-exchange-json-rpc": -1
			},
			"version": "2.7.0",
			"height": 13931197,
			"latency": 257
		},
		{
			"ip": "5.196.105.45",
			"port": 4001,
			"ports": {
				"@arkecosystem/core-api": 4003,
				"@arkecosystem/core-wallet-api": 4040,
				"@arkecosystem/core-webhooks": -1,
				"@arkecosystem/core-exchange-json-rpc": -1
			},
			"version": "2.7.1",
			"height": 13931197,
			"latency": 258
		},
		{
			"ip": "34.121.235.70",
			"port": 4001,
			"ports": {
				"@arkecosystem/core-api": 4003,
				"@arkecosystem/core-wallet-api": -1,
				"@arkecosystem/core-webhooks": -1,
				"@arkecosystem/core-exchange-json-rpc": -1
			},
			"version": "2.7.1",
			"height": 13931197,
			"latency": 258
		},
		{
			"ip": "5.135.52.99",
			"port": 4001,
			"ports": {
				"@arkecosystem/core-api": 4003,
				"@arkecosystem/core-wallet-api": 4040,
				"@arkecosystem/core-webhooks": -1,
				"@arkecosystem/core-exchange-json-rpc": -1
			},
			"version": "2.7.1",
			"height": 13931197,
			"latency": 270
		},
		{
			"ip": "213.32.41.109",
			"port": 4001,
			"ports": {
				"@arkecosystem/core-api": 4003,
				"@arkecosystem/core-wallet-api": 4040,
				"@arkecosystem/core-webhooks": -1,
				"@arkecosystem/core-exchange-json-rpc": -1
			},
			"version": "2.7.1",
			"height": 13931197,
			"latency": 271
		},
		{
			"ip": "46.105.160.105",
			"port": 4001,
			"ports": {
				"@arkecosystem/core-api": 4003,
				"@arkecosystem/core-wallet-api": 4040,
				"@arkecosystem/core-webhooks": -1,
				"@arkecosystem/core-exchange-json-rpc": -1
			},
			"version": "2.7.1",
			"height": 13931192,
			"latency": 273
		},
		{
			"ip": "144.202.62.210",
			"port": 4001,
			"ports": {
				"@arkecosystem/core-wallet-api": 4040,
				"@arkecosystem/core-api": 4003,
				"@arkecosystem/core-webhooks": -1,
				"@arkecosystem/core-exchange-json-rpc": -1
			},
			"version": "2.7.0",
			"height": 13931193,
			"latency": 278
		},
		{
			"ip": "207.154.213.95",
			"port": 4001,
			"ports": {
				"@arkecosystem/core-api": 4003,
				"@arkecosystem/core-wallet-api": 4040,
				"@arkecosystem/core-webhooks": -1,
				"@arkecosystem/core-exchange-json-rpc": -1
			},
			"version": "2.7.0",
			"height": 13931193,
			"latency": 287
		},
		{
			"ip": "54.38.120.37",
			"port": 4001,
			"ports": {
				"@arkecosystem/core-api": 4003,
				"@arkecosystem/core-wallet-api": 4040,
				"@arkecosystem/core-webhooks": -1,
				"@arkecosystem/core-exchange-json-rpc": -1
			},
			"version": "2.7.1",
			"height": 13931197,
			"latency": 287
		},
		{
			"ip": "104.131.86.202",
			"port": 4001,
			"ports": {
				"@arkecosystem/core-api": 4003,
				"@arkecosystem/core-wallet-api": 4040,
				"@arkecosystem/core-webhooks": -1,
				"@arkecosystem/core-exchange-json-rpc": -1
			},
			"version": "2.7.1",
			"height": 13931193,
			"latency": 289
		},
		{
			"ip": "108.41.160.30",
			"port": 4001,
			"ports": {
				"@arkecosystem/core-api": 4003,
				"@arkecosystem/core-wallet-api": -1,
				"@arkecosystem/core-webhooks": -1,
				"@arkecosystem/core-exchange-json-rpc": -1
			},
			"version": "2.7.0",
			"height": 13931197,
			"latency": 295
		},
		{
			"ip": "51.255.105.54",
			"port": 4001,
			"ports": {
				"@arkecosystem/core-api": 4003,
				"@arkecosystem/core-wallet-api": 4040,
				"@arkecosystem/core-webhooks": -1,
				"@arkecosystem/core-exchange-json-rpc": -1
			},
			"version": "2.7.1",
			"height": 13931193,
			"latency": 302
		},
		{
			"ip": "151.80.125.38",
			"port": 4001,
			"ports": {
				"@arkecosystem/core-api": 4003,
				"@arkecosystem/core-wallet-api": 4040,
				"@arkecosystem/core-webhooks": -1,
				"@arkecosystem/core-exchange-json-rpc": -1
			},
			"version": "2.7.1",
			"height": 13931197,
			"latency": 332
		},
		{
			"ip": "5.196.105.34",
			"port": 4001,
			"ports": {
				"@arkecosystem/core-api": 4003,
				"@arkecosystem/core-wallet-api": 4040,
				"@arkecosystem/core-webhooks": -1,
				"@arkecosystem/core-exchange-json-rpc": -1
			},
			"version": "2.7.0",
			"height": 13931197,
			"latency": 352
		},
		{
			"ip": "54.38.120.36",
			"port": 4001,
			"ports": {
				"@arkecosystem/core-api": 4003,
				"@arkecosystem/core-wallet-api": 4040,
				"@arkecosystem/core-webhooks": -1,
				"@arkecosystem/core-exchange-json-rpc": -1
			},
			"version": "2.7.1",
			"height": 13931197,
			"latency": 355
		},
		{
			"ip": "5.196.105.40",
			"port": 4001,
			"ports": {
				"@arkecosystem/core-api": 4003,
				"@arkecosystem/core-wallet-api": 4040,
				"@arkecosystem/core-webhooks": -1,
				"@arkecosystem/core-exchange-json-rpc": -1
			},
			"version": "2.7.1",
			"height": 13931193,
			"latency": 366
		},
		{
			"ip": "178.32.65.139",
			"port": 4001,
			"ports": {
				"@arkecosystem/core-api": 4003,
				"@arkecosystem/core-wallet-api": 4040,
				"@arkecosystem/core-webhooks": -1,
				"@arkecosystem/core-exchange-json-rpc": -1
			},
			"version": "2.7.0",
			"height": 13931197,
			"latency": 393
		},
		{
			"ip": "54.38.120.35",
			"port": 4001,
			"ports": {
				"@arkecosystem/core-api": 4003,
				"@arkecosystem/core-wallet-api": 4040,
				"@arkecosystem/core-webhooks": -1,
				"@arkecosystem/core-exchange-json-rpc": -1
			},
			"version": "2.7.1",
			"height": 13931197,
			"latency": 395
		},
		{
			"ip": "213.32.41.111",
			"port": 4001,
			"ports": {
				"@arkecosystem/core-api": 4003,
				"@arkecosystem/core-wallet-api": 4040,
				"@arkecosystem/core-webhooks": -1,
				"@arkecosystem/core-exchange-json-rpc": -1
			},
			"version": "2.7.0",
			"height": 13931197,
			"latency": 404
		},
		{
			"ip": "178.32.65.142",
			"port": 4001,
			"ports": {
				"@arkecosystem/core-api": 4003,
				"@arkecosystem/core-wallet-api": 4040,
				"@arkecosystem/core-webhooks": -1,
				"@arkecosystem/core-exchange-json-rpc": -1
			},
			"version": "2.7.0",
			"height": 13931197,
			"latency": 404
		},
		{
			"ip": "81.106.98.93",
			"port": 4001,
			"ports": {},
			"version": "2.7.1",
			"height": 13931193,
			"latency": 415
		},
		{
			"ip": "123.31.31.29",
			"port": 4001,
			"ports": {
				"@arkecosystem/core-api": 4003,
				"@arkecosystem/core-wallet-api": 4040,
				"@arkecosystem/core-webhooks": -1,
				"@arkecosystem/core-exchange-json-rpc": -1
			},
			"version": "2.6.52",
			"height": 13931201,
			"latency": 416
		},
		{
			"ip": "213.32.41.107",
			"port": 4001,
			"ports": {
				"@arkecosystem/core-api": 4003,
				"@arkecosystem/core-wallet-api": 4040,
				"@arkecosystem/core-webhooks": -1,
				"@arkecosystem/core-exchange-json-rpc": -1
			},
			"version": "2.7.1",
			"height": 13931201,
			"latency": 416
		},
		{
			"ip": "5.196.105.36",
			"port": 4001,
			"ports": {
				"@arkecosystem/core-api": 4003,
				"@arkecosystem/core-wallet-api": 4040,
				"@arkecosystem/core-webhooks": -1,
				"@arkecosystem/core-exchange-json-rpc": -1
			},
			"version": "2.7.0",
			"height": 13931201,
			"latency": 417
		},
		{
			"ip": "213.32.41.106",
			"port": 4001,
			"ports": {
				"@arkecosystem/core-api": 4003,
				"@arkecosystem/core-wallet-api": 4040,
				"@arkecosystem/core-webhooks": -1,
				"@arkecosystem/core-exchange-json-rpc": -1
			},
			"version": "2.7.1",
			"height": 13931201,
			"latency": 417
		},
		{
			"ip": "151.80.125.37",
			"port": 4001,
			"ports": {
				"@arkecosystem/core-api": 4003,
				"@arkecosystem/core-wallet-api": 4040,
				"@arkecosystem/core-webhooks": -1,
				"@arkecosystem/core-exchange-json-rpc": -1
			},
			"version": "2.7.1",
			"height": 13931201,
			"latency": 417
		},
		{
			"ip": "54.38.120.39",
			"port": 4001,
			"ports": {
				"@arkecosystem/core-api": 4003,
				"@arkecosystem/core-wallet-api": 4040,
				"@arkecosystem/core-webhooks": -1,
				"@arkecosystem/core-exchange-json-rpc": -1
			},
			"version": "2.7.1",
			"height": 13931201,
			"latency": 417
		},
		{
			"ip": "5.196.105.47",
			"port": 4001,
			"ports": {
				"@arkecosystem/core-api": 4003,
				"@arkecosystem/core-wallet-api": 4040,
				"@arkecosystem/core-webhooks": -1,
				"@arkecosystem/core-exchange-json-rpc": -1
			},
			"version": "2.7.1",
			"height": 13931201,
			"latency": 417
		},
		{
			"ip": "176.103.48.24",
			"port": 4001,
			"ports": {
				"@arkecosystem/core-api": 4003,
				"@arkecosystem/core-wallet-api": 4040,
				"@arkecosystem/core-webhooks": -1,
				"@arkecosystem/core-exchange-json-rpc": -1
			},
			"version": "2.7.1",
			"height": 13931201,
			"latency": 417
		},
		{
			"ip": "142.4.215.181",
			"port": 4001,
			"ports": {
				"@arkecosystem/core-api": -1,
				"@arkecosystem/core-wallet-api": -1,
				"@arkecosystem/core-webhooks": -1,
				"@arkecosystem/core-exchange-json-rpc": -1
			},
			"version": "2.7.1",
			"height": 13931201,
			"latency": 417
		},
		{
			"ip": "51.15.219.206",
			"port": 4001,
			"ports": {
				"@arkecosystem/core-api": 4003,
				"@arkecosystem/core-wallet-api": 4040,
				"@arkecosystem/core-webhooks": -1,
				"@arkecosystem/core-exchange-json-rpc": -1
			},
			"version": "2.7.0",
			"height": 13931201,
			"latency": 418
		},
		{
			"ip": "54.38.120.33",
			"port": 4001,
			"ports": {
				"@arkecosystem/core-api": 4003,
				"@arkecosystem/core-wallet-api": 4040,
				"@arkecosystem/core-webhooks": -1,
				"@arkecosystem/core-exchange-json-rpc": -1
			},
			"version": "2.7.1",
			"height": 13931201,
			"latency": 418
		},
		{
			"ip": "5.196.105.35",
			"port": 4001,
			"ports": {
				"@arkecosystem/core-api": 4003,
				"@arkecosystem/core-wallet-api": 4040,
				"@arkecosystem/core-webhooks": -1,
				"@arkecosystem/core-exchange-json-rpc": -1
			},
			"version": "2.7.0",
			"height": 13931201,
			"latency": 428
		}
	]
}
