{
	"meta": {
		"totalCountIsEstimate": true,
		"count": 15,
		"pageCount": 4,
		"totalCount": 60,
		"next": "/transactions?page=3&limit=15&transform=true",
		"previous": "/transactions?page=1&limit=15&transform=true",
		"self": "/transactions?page=2&limit=15&transform=true",
		"first": "/transactions?page=1&limit=15&transform=true",
		"last": "/transactions?page=4&limit=15&transform=true"
	},
	"data": [
		{
			"id": "1baab5e9c84629598f71f282db94709e6a9003f3bfe67909003674a74b0effaf",
			"blockId": "38f03aae3f0916157a29f5ac86edb885656b95a21c5070ec27e81704c6d882c9",
			"version": 2,
			"type": 0,
			"typeGroup": 1,
			"amount": "10",
			"fee": "10000000",
			"sender": "D8rr7B1d6TL6pf14LgMz4sKp1VBMs6YUYD",
			"senderPublicKey": "03df6cd794a7d404db4f1b25816d8976d0e72c5177d17ac9b19a92703b62cdbbbc",
			"recipient": "D8rr7B1d6TL6pf14LgMz4sKp1VBMs6YUYD",
			"signature": "304402204ebf2df81b24a109dcff6f3f9fee5d110c4eeb2ab7ba987209b5694593e43d490220430eb2af4585aa18823947b0de100e0ed4392852f39dd4f46175f4e108f64528",
			"confirmations": 2399317,
			"timestamp": {
				"epoch": 91835176,
				"unix": 1581936376,
				"human": "2020-02-17T10:46:16.000Z"
			},
			"nonce": "241"
		},
		{
			"id": "b02b49818061e05e7fa481ea5702ce91bf531c79c3ea24ed93df31cd7b464499",
			"blockId": "dd60a01b0012e8104410293c2fb561f2ee9ff7ea87056b70c1e91850a6ec49c8",
			"version": 2,
			"type": 0,
			"typeGroup": 1,
			"amount": "10",
			"fee": "10000000",
			"sender": "DBoKkzKAT6YdXhyv1mvcKEg97JxiRqMuK2",
			"senderPublicKey": "03591bfd6cd2d6fdce4a740185886c832caaa3bcc166819a25b5860b4303628a31",
			"recipient": "D8rr7B1d6TL6pf14LgMz4sKp1VBMs6YUYD",
			"signature": "304402207434d7d0a88201b7c91f8111d45384d956fef1540f9ee03f00972926c2f4139a0220440b78a322e8d89fa406a4c8abd77db376bce289bebb31ae48d4c602e1211e27",
			"vendorField": "Java ? ? ? ?",
			"confirmations": 2442267,
			"timestamp": {
				"epoch": 91482672,
				"unix": 1581583872,
				"human": "2020-02-13T08:51:12.000Z"
			},
			"nonce": "32"
		},
		{
			"id": "b13fcf503be95cf059d31f19b765e61fce2273c8519c59618f423c93b62b567d",
			"blockId": "849147aacd939c08ee7d38794d73ca7a97512790095e07ffa01966ccc016399b",
			"version": 2,
			"type": 0,
			"typeGroup": 1,
			"amount": "10",
			"fee": "10000000",
			"sender": "DBoKkzKAT6YdXhyv1mvcKEg97JxiRqMuK2",
			"senderPublicKey": "03591bfd6cd2d6fdce4a740185886c832caaa3bcc166819a25b5860b4303628a31",
			"recipient": "D8rr7B1d6TL6pf14LgMz4sKp1VBMs6YUYD",
			"signature": "3045022100c652153e250ff802b338a557364e13770a1210927e532a653bc02c54894f3a9b0220746dcbe6653b94b9c8fd91f59dc0cf7411ad3eeafbf72bcc170efa874178c0e8",
			"vendorField": "Java ? ? ? ?",
			"confirmations": 2442361,
			"timestamp": {
				"epoch": 91481888,
				"unix": 1581583088,
				"human": "2020-02-13T08:38:08.000Z"
			},
			"nonce": "30"
		},
		{
			"id": "102973c261669075a50cd5b4f466f38cce683c325ee87627bb7cb0bef98c7d4a",
			"blockId": "9df3d94c96c94bfd06035df811b3682150d16de83b4c8147c47f456fee11fd5f",
			"version": 2,
			"type": 0,
			"typeGroup": 1,
			"amount": "10",
			"fee": "10000000",
			"sender": "DBoKkzKAT6YdXhyv1mvcKEg97JxiRqMuK2",
			"senderPublicKey": "03591bfd6cd2d6fdce4a740185886c832caaa3bcc166819a25b5860b4303628a31",
			"recipient": "D8rr7B1d6TL6pf14LgMz4sKp1VBMs6YUYD",
			"signature": "3045022100e6bece812b698f0aeba84cdd10c59979d5275cf3d953087ee61503144dec124a02202b38c7381632e2019a9079894c4b5df6cad372581df4f6cc581a2245ed0518af",
			"vendorField": "Java ? ? ? ?",
			"confirmations": 2442365,
			"timestamp": {
				"epoch": 91481856,
				"unix": 1581583056,
				"human": "2020-02-13T08:37:36.000Z"
			},
			"nonce": "29"
		},
		{
			"id": "b3826dca89e00c641be198d850153c32a41dfe4d7144223494f3c0e5211fc559",
			"blockId": "5ccfb51de97c4427371fef36ec4dd7e508e64073c3cf488d4b9af1b19d20d068",
			"version": 2,
			"type": 0,
			"typeGroup": 1,
			"amount": "10",
			"fee": "10000000",
			"sender": "DBoKkzKAT6YdXhyv1mvcKEg97JxiRqMuK2",
			"senderPublicKey": "03591bfd6cd2d6fdce4a740185886c832caaa3bcc166819a25b5860b4303628a31",
			"recipient": "D8rr7B1d6TL6pf14LgMz4sKp1VBMs6YUYD",
			"signature": "3044022037b06d60f4a58db57011c2011a64e61ebb78fca749a868334b37ab9f8e10749802201166cda5f7b29bb4a408aaf8473fb2a4a88d54be9388f3393d522355f2c5b0d0",
			"vendorField": "Java ? ? ? ?",
			"confirmations": 2442459,
			"timestamp": {
				"epoch": 91481072,
				"unix": 1581582272,
				"human": "2020-02-13T08:24:32.000Z"
			},
			"nonce": "28"
		},
		{
			"id": "bd7981eaf488d6e59d040e749903ef0f3855f69bf921e805d10143104e26d6bd",
			"blockId": "75873b2c8e7ce12cfa5f3c213b5268cab4b2072c54402e48b08c804040ddc7bc",
			"version": 2,
			"type": 0,
			"typeGroup": 1,
			"amount": "10",
			"fee": "10000000",
			"sender": "DBoKkzKAT6YdXhyv1mvcKEg97JxiRqMuK2",
			"senderPublicKey": "03591bfd6cd2d6fdce4a740185886c832caaa3bcc166819a25b5860b4303628a31",
			"recipient": "D8rr7B1d6TL6pf14LgMz4sKp1VBMs6YUYD",
			"signature": "3045022100f8de18951414443ea09ea7812b5a8aa994afdaef795dc8d9f88f0f4b19b5b8f8022076136f1e0511f9582c9dac3d74d49f86d6f484d1c502b022c657cda6484d423d",
			"vendorField": "Java ? ? ? ?",
			"confirmations": 2442463,
			"timestamp": {
				"epoch": 91481032,
				"unix": 1581582232,
				"human": "2020-02-13T08:23:52.000Z"
			},
			"nonce": "27"
		},
		{
			"id": "fcb7c690154fa733f7d21f853412f2581c7d39986d530c6039dec17c4ac69ef8",
			"blockId": "819ee76eaec5d363880769df762fcc1bf2f7565c85a71281934e7eefd3fd4b7e",
			"version": 2,
			"type": 0,
			"typeGroup": 1,
			"amount": "10",
			"fee": "10000000",
			"sender": "DBoKkzKAT6YdXhyv1mvcKEg97JxiRqMuK2",
			"senderPublicKey": "03591bfd6cd2d6fdce4a740185886c832caaa3bcc166819a25b5860b4303628a31",
			"recipient": "D8rr7B1d6TL6pf14LgMz4sKp1VBMs6YUYD",
			"signature": "3044022020e5eac01d4b2187314da9ba666b965364d400a032aed3904dd99c738f8dbe11022026869d668ee0dfdb4129e14cc2f5b9afbfe48c5321c8b530d4b03edc6ec4d02c",
			"vendorField": "Java ? ? ? ?",
			"confirmations": 2442466,
			"timestamp": {
				"epoch": 91481008,
				"unix": 1581582208,
				"human": "2020-02-13T08:23:28.000Z"
			},
			"nonce": "26"
		},
		{
			"id": "65cd13120d349838649d870c91d2dec37ef0ee24268762e474856956cd7c05b2",
			"blockId": "f905baec14555bcc0d085ba17270f45886b1d3ca3bb2881c1afec7480f2e519a",
			"version": 2,
			"type": 0,
			"typeGroup": 1,
			"amount": "1",
			"fee": "10000000",
			"sender": "D8rr7B1d6TL6pf14LgMz4sKp1VBMs6YUYD",
			"senderPublicKey": "03df6cd794a7d404db4f1b25816d8976d0e72c5177d17ac9b19a92703b62cdbbbc",
			"recipient": "DBoKkzKAT6YdXhyv1mvcKEg97JxiRqMuK2",
			"signature": "9067d9fbc9a8a543487c3e0a3c711df85d500f5f5924402feae046d60f622675c1e77c0c52854a09c157dc8fe79638f4c6456a8663f79a322ae45d8e86edeb63",
			"confirmations": 2442537,
			"timestamp": {
				"epoch": 91480416,
				"unix": 1581581616,
				"human": "2020-02-13T08:13:36.000Z"
			},
			"nonce": "240"
		},
		{
			"id": "d588fb32ba0c52d318dbb30ea7256432bdcf5c15066349b15f588e9e4d152e78",
			"blockId": "b034e41954deb34f8eb6297e9167b1373d2906885ecb3274bb227db4c44e9dec",
			"version": 2,
			"type": 0,
			"typeGroup": 1,
			"amount": "10",
			"fee": "10000000",
			"sender": "DBoKkzKAT6YdXhyv1mvcKEg97JxiRqMuK2",
			"senderPublicKey": "03591bfd6cd2d6fdce4a740185886c832caaa3bcc166819a25b5860b4303628a31",
			"recipient": "D8rr7B1d6TL6pf14LgMz4sKp1VBMs6YUYD",
			"signature": "304402204c396bc0565c5a388a201c78bebf6c2a005c5a0aebcc51f9524a41691ac63590022068ea2823e1031d80ad4af575b4c02c1482061feed16658fa007bc5e32344cd18",
			"vendorField": "Java ? ? ? ?",
			"confirmations": 2442617,
			"timestamp": {
				"epoch": 91479752,
				"unix": 1581580952,
				"human": "2020-02-13T08:02:32.000Z"
			},
			"nonce": "23"
		},
		{
			"id": "b7f99951d54ca08a0eeb03e1b6aed800311d3cb15ecebde8ad76af65636c10b4",
			"blockId": "934d1287001fa4abf23812ba580e9b0eeecead4c10d07c340562684bcc4bc24b",
			"version": 2,
			"type": 0,
			"typeGroup": 1,
			"amount": "10",
			"fee": "10000000",
			"sender": "DBoKkzKAT6YdXhyv1mvcKEg97JxiRqMuK2",
			"senderPublicKey": "03591bfd6cd2d6fdce4a740185886c832caaa3bcc166819a25b5860b4303628a31",
			"recipient": "D8rr7B1d6TL6pf14LgMz4sKp1VBMs6YUYD",
			"signature": "304402203d9a780416544d6da8b4a468fc0bba8b6946d6da17b1e18137ee9f7527448cc5022058c4c8635a310eae276c94f0768d7877ee66db841afd00d0372fa206f4d97a89",
			"vendorField": "Java ? ? ? ?",
			"confirmations": 2442642,
			"timestamp": {
				"epoch": 91479544,
				"unix": 1581580744,
				"human": "2020-02-13T07:59:04.000Z"
			},
			"nonce": "22"
		},
		{
			"id": "7aac5ca02c023aeacc4714be3df6d87f5d471ab5902b93de7d95ee9be7311e0b",
			"blockId": "82322e7473d935a58ea68221991c39c01a0d183f141399624893f5832fd4f7d3",
			"version": 2,
			"type": 0,
			"typeGroup": 1,
			"amount": "10",
			"fee": "10000000",
			"sender": "DBoKkzKAT6YdXhyv1mvcKEg97JxiRqMuK2",
			"senderPublicKey": "03591bfd6cd2d6fdce4a740185886c832caaa3bcc166819a25b5860b4303628a31",
			"recipient": "D8rr7B1d6TL6pf14LgMz4sKp1VBMs6YUYD",
			"signature": "304502210082252358f8b9d577df7dbee56abe47da9fa3714c4cdbf92532644eb1c729fdbd02205976c00b9bcd02247351623e3253175a3c8442a2defa4091299d158cc5c626a1",
			"vendorField": "Java ? ? ? ?",
			"confirmations": 2442656,
			"timestamp": {
				"epoch": 91479432,
				"unix": 1581580632,
				"human": "2020-02-13T07:57:12.000Z"
			},
			"nonce": "21"
		},
		{
			"id": "03e7f8535581ded94dfc6ae1894d02ed597bc8fcb7243870602369dfdeaa8618",
			"blockId": "b9e86364543838d0d4815dc8c33809cc7165b16966f0dbccfe22c678e24c7c55",
			"version": 2,
			"type": 0,
			"typeGroup": 1,
			"amount": "10",
			"fee": "10000000",
			"sender": "DBoKkzKAT6YdXhyv1mvcKEg97JxiRqMuK2",
			"senderPublicKey": "03591bfd6cd2d6fdce4a740185886c832caaa3bcc166819a25b5860b4303628a31",
			"recipient": "D8rr7B1d6TL6pf14LgMz4sKp1VBMs6YUYD",
			"signature": "3044022007765b310251c09279cad1c2a50bc4ee1a84d4595fbb07efb056d46d21de630e02203f0dd219374c5f904401e10a5e82d23159b88e0333a2166755e1ef565bb61e48",
			"vendorField": "Java ? ? ? ?",
			"confirmations": 2442680,
			"timestamp": {
				"epoch": 91479224,
				"unix": 1581580424,
				"human": "2020-02-13T07:53:44.000Z"
			},
			"nonce": "20"
		},
		{
			"id": "8c9e887b02d5c11a62da8ee48714dc7a37d2b8d2dadc7762982d1b64f92df942",
			"blockId": "8429314031698dbb1db7b309f69499c3aad22e50c1a39ab42e05178d75ea5e51",
			"version": 2,
			"type": 0,
			"typeGroup": 1,
			"amount": "10",
			"fee": "10000000",
			"sender": "DBoKkzKAT6YdXhyv1mvcKEg97JxiRqMuK2",
			"senderPublicKey": "03591bfd6cd2d6fdce4a740185886c832caaa3bcc166819a25b5860b4303628a31",
			"recipient": "D8rr7B1d6TL6pf14LgMz4sKp1VBMs6YUYD",
			"signature": "304402202330d9afc627d5085444af4adff5d1a3eafa3145e95d55d9288d3d71297d08a102201f449e9501f02d54f33f06a4790a9bdbbad8e7a7bab44625d29719ac0e4fa444",
			"vendorField": "Java ? ? ? ?",
			"confirmations": 2442694,
			"timestamp": {
				"epoch": 91479104,
				"unix": 1581580304,
				"human": "2020-02-13T07:51:44.000Z"
			},
			"nonce": "19"
		},
		{
			"id": "869b8c452ec65cad3e38c54f492094c9771c53df266b4ac00cadfbbbd30adf7e",
			"blockId": "b8f93f0e92b0d1dfb82caa6a63a6abe2082e61dd0c216abadbdf2e901bd0b46b",
			"version": 2,
			"type": 6,
			"typeGroup": 1,
			"amount": "0",
			"fee": "10000000",
			"sender": "D8rr7B1d6TL6pf14LgMz4sKp1VBMs6YUYD",
			"senderPublicKey": "03df6cd794a7d404db4f1b25816d8976d0e72c5177d17ac9b19a92703b62cdbbbc",
			"recipient": "D8rr7B1d6TL6pf14LgMz4sKp1VBMs6YUYD",
			"signature": "95b560474c22206aebd9b4e290f710c652c5309ba92a0d067515025401d06c4122f065fb4d8aabf8b40fbbb10f1169b2d27b39a4599c01600c5f3e85f702185b",
			"asset": {
				"payments": [
					{
						"amount": "100000000",
						"recipientId": "DBoKkzKAT6YdXhyv1mvcKEg97JxiRqMuK2"
					},
					{
						"amount": "100000000",
						"recipientId": "DBoKkzKAT6YdXhyv1mvcKEg97JxiRqMuK2"
					},
					{
						"amount": "100000000",
						"recipientId": "DBoKkzKAT6YdXhyv1mvcKEg97JxiRqMuK2"
					}
				]
			},
			"confirmations": 2443233,
			"timestamp": {
				"epoch": 91474640,
				"unix": 1581575840,
				"human": "2020-02-13T06:37:20.000Z"
			},
			"nonce": "239"
		},
		{
			"id": "3aaf530b438dc6ce4fec5b16a8fc7edb5c51cddeb0b8cb254b18ead90e30ab65",
			"blockId": "053e6a21ef93bb0c9dd3d2478aad6f65f175eff054487e40663d0d566b6638b2",
			"version": 2,
			"type": 0,
			"typeGroup": 1,
			"amount": "10",
			"fee": "10000000",
			"sender": "DBoKkzKAT6YdXhyv1mvcKEg97JxiRqMuK2",
			"senderPublicKey": "03591bfd6cd2d6fdce4a740185886c832caaa3bcc166819a25b5860b4303628a31",
			"recipient": "D8rr7B1d6TL6pf14LgMz4sKp1VBMs6YUYD",
			"signature": "30450221008c6a1efb5e4c4c17e6d2b16d8f581291825591a36adb710e004b9966f73f611a02204b0701fe677b6c27f814384b24baf4ce721a4fccf3e773e9dece136ed2af9b9f",
			"vendorField": "Java ? ? ? ?",
			"confirmations": 2451082,
			"timestamp": {
				"epoch": 91411600,
				"unix": 1581512800,
				"human": "2020-02-12T13:06:40.000Z"
			},
			"nonce": "18"
		}
	]
}
